%YAML 1.1
%TAG !u! tag:unity3d.com,2011:
--- !u!74 &7400000
AnimationClip:
  m_ObjectHideFlags: 0
  m_PrefabParentObject: {fileID: 0}
  m_PrefabInternal: {fileID: 0}
  m_Name: Tohukozou_Win
  serializedVersion: 4
  m_AnimationType: 2
  m_Compressed: 0
  m_UseHighQualityCurve: 1
  m_RotationCurves:
  - curve:
      serializedVersion: 2
      m_Curve:
      - time: 0
        value: {x: -.00256089284, y: 0, z: 0, w: .999996722}
        inSlope: {x: -.282307237, y: 0, z: 0, w: -.00138759601}
        outSlope: {x: -.282307237, y: 0, z: 0, w: -.00138759601}
        tangentMode: 1065353216
      - time: .0166666675
        value: {x: -.00726601342, y: 0, z: 0, w: .999973595}
        inSlope: {x: -.290581167, y: 0, z: 0, w: -.0021511314}
        outSlope: {x: -.290581167, y: 0, z: 0, w: -.0021511314}
        tangentMode: 0
      - time: .0333333351
        value: {x: -.0122469319, y: 0, z: 0, w: .999925017}
        inSlope: {x: -.306204289, y: 0, z: 0, w: -.00378727866}
        outSlope: {x: -.306204289, y: 0, z: 0, w: -.00378727866}
        tangentMode: 0
      - time: .0500000045
        value: {x: -.0174728241, y: 0, z: 0, w: .999847353}
        inSlope: {x: -.319977045, y: 0, z: 0, w: -.00562727451}
        outSlope: {x: -.319977045, y: 0, z: 0, w: -.00562727451}
        tangentMode: 0
      - time: .0666666701
        value: {x: -.0229128338, y: 0, z: 0, w: .999737442}
        inSlope: {x: -.331897557, y: 0, z: 0, w: -.00763714407}
        outSlope: {x: -.331897557, y: 0, z: 0, w: -.00763714407}
        tangentMode: 0
      - time: .0833333358
        value: {x: -.0285360757, y: 0, z: 0, w: .999592781}
        inSlope: {x: -.341964453, y: 0, z: 0, w: -.0097882757}
        outSlope: {x: -.341964453, y: 0, z: 0, w: -.0097882757}
        tangentMode: 0
      - time: .100000001
        value: {x: -.0343116485, y: 0, z: 0, w: .999411166}
        inSlope: {x: -.350176752, y: 0, z: 0, w: -.0120449075}
        outSlope: {x: -.350176752, y: 0, z: 0, w: -.0120449075}
        tangentMode: 1065353216
      - time: .116666667
        value: {x: -.040208634, y: 0, z: 0, w: .999191284}
        inSlope: {x: -.356533915, y: 0, z: 0, w: -.0143641215}
        outSlope: {x: -.356533915, y: 0, z: 0, w: -.0143641215}
        tangentMode: 0
      - time: .13333334
        value: {x: -.0461961143, y: 0, z: 0, w: .998932362}
        inSlope: {x: -.36103633, y: 0, z: 0, w: -.016706584}
        outSlope: {x: -.36103633, y: 0, z: 0, w: -.016706584}
        tangentMode: 0
      - time: .150000006
        value: {x: -.0522431806, y: 0, z: 0, w: .998634398}
        inSlope: {x: -.363684893, y: 0, z: 0, w: -.0190311689}
        outSlope: {x: -.363684893, y: 0, z: 0, w: -.0190311689}
        tangentMode: 0
      - time: .166666672
        value: {x: -.0583189428, y: 0, z: 0, w: .998297989}
        inSlope: {x: -.364480942, y: 0, z: 0, w: -.0212931652}
        outSlope: {x: -.364480942, y: 0, z: 0, w: -.0212931652}
        tangentMode: 0
      - time: .183333337
        value: {x: -.0643925443, y: 0, z: 0, w: .997924626}
        inSlope: {x: -.363427043, y: 0, z: 0, w: -.0234442968}
        outSlope: {x: -.363427043, y: 0, z: 0, w: -.0234442968}
        tangentMode: 0
      - time: .200000003
        value: {x: -.0704331771, y: 0, z: 0, w: .997516513}
        inSlope: {x: -.360525787, y: 0, z: 0, w: -.0254452247}
        outSlope: {x: -.360525787, y: 0, z: 0, w: -.0254452247}
        tangentMode: 0
      - time: .216666669
        value: {x: -.0764100701, y: 0, z: 0, w: .997076452}
        inSlope: {x: -.355780959, y: 0, z: 0, w: -.0272494573}
        outSlope: {x: -.355780959, y: 0, z: 0, w: -.0272494573}
        tangentMode: 0
      - time: .233333334
        value: {x: -.0822925419, y: 0, z: 0, w: .996608198}
        inSlope: {x: -.34919703, y: 0, z: 0, w: -.0288122911}
        outSlope: {x: -.34919703, y: 0, z: 0, w: -.0288122911}
        tangentMode: 0
      - time: .25
        value: {x: -.0880499706, y: 0, z: 0, w: .996116042}
        inSlope: {x: -.340778351, y: 0, z: 0, w: -.0300961621}
        outSlope: {x: -.340778351, y: 0, z: 0, w: -.0300961621}
        tangentMode: 0
      - time: .266666681
        value: {x: -.0936518237, y: 0, z: 0, w: .995604992}
        inSlope: {x: -.330529451, y: 0, z: 0, w: -.0310599543}
        outSlope: {x: -.330529451, y: 0, z: 0, w: -.0310599543}
        tangentMode: 0
      - time: .283333361
        value: {x: -.0990676284, y: 0, z: 0, w: .995080709}
        inSlope: {x: -.318455517, y: 0, z: 0, w: -.0316697098}
        outSlope: {x: -.318455517, y: 0, z: 0, w: -.0316697098}
        tangentMode: 0
      - time: .300000042
        value: {x: -.104267016, y: 0, z: 0, w: .994549334}
        inSlope: {x: -.30456233, y: 0, z: 0, w: -.0318914391}
        outSlope: {x: -.30456233, y: 0, z: 0, w: -.0318914391}
        tangentMode: 0
      - time: .316666722
        value: {x: -.109219715, y: 0, z: 0, w: .994017661}
        inSlope: {x: -.288855135, y: 0, z: 0, w: -.0316983201}
        outSlope: {x: -.288855135, y: 0, z: 0, w: -.0316983201}
        tangentMode: 0
      - time: .333333403
        value: {x: -.113895528, y: 0, z: 0, w: .993492723}
        inSlope: {x: -.271338284, y: 0, z: 0, w: -.0310653187}
        outSlope: {x: -.271338284, y: 0, z: 0, w: -.0310653187}
        tangentMode: -1
      - time: .350000083
        value: {x: -.118264332, y: 0, z: 0, w: .992982149}
        inSlope: {x: -.252016127, y: 0, z: 0, w: -.0299709775}
        outSlope: {x: -.252016127, y: 0, z: 0, w: -.0299709775}
        tangentMode: -1
      - time: .366666764
        value: {x: -.122296073, y: 0, z: 0, w: .992493689}
        inSlope: {x: -.230892852, y: 0, z: 0, w: -.0284081474}
        outSlope: {x: -.230892852, y: 0, z: 0, w: -.0284081474}
        tangentMode: -1
      - time: .383333445
        value: {x: -.125960767, y: 0, z: 0, w: .99203521}
        inSlope: {x: -.207971394, y: 0, z: 0, w: -.0263660923}
        outSlope: {x: -.207971394, y: 0, z: 0, w: -.0263660923}
        tangentMode: -1
      - time: .400000125
        value: {x: -.129228458, y: 0, z: 0, w: .991614819}
        inSlope: {x: -.183253288, y: 0, z: 0, w: -.0238412432}
        outSlope: {x: -.183253288, y: 0, z: 0, w: -.0238412432}
        tangentMode: -1
      - time: .416666806
        value: {x: -.132069215, y: 0, z: 0, w: .991240501}
        inSlope: {x: -.156739667, y: 0, z: 0, w: -.0208461098}
        outSlope: {x: -.156739667, y: 0, z: 0, w: -.0208461098}
        tangentMode: -1
      - time: .433333486
        value: {x: -.134453118, y: 0, z: 0, w: .990919948}
        inSlope: {x: -.128429428, y: 0, z: 0, w: -.0173932165}
        outSlope: {x: -.128429428, y: 0, z: 0, w: -.0173932165}
        tangentMode: -1
      - time: .450000167
        value: {x: -.1363502, y: 0, z: 0, w: .990660727}
        inSlope: {x: -.0983207598, y: 0, z: 0, w: -.0135058053}
        outSlope: {x: -.0983207598, y: 0, z: 0, w: -.0135058053}
        tangentMode: -1
      - time: .466666847
        value: {x: -.137730479, y: 0, z: 0, w: .990469754}
        inSlope: {x: -.066410549, y: 0, z: 0, w: -.00921606272}
        outSlope: {x: -.066410549, y: 0, z: 0, w: -.00921606272}
        tangentMode: -1
      - time: .483333528
        value: {x: -.138563886, y: 0, z: 0, w: .990353525}
        inSlope: {x: -.0326925367, y: 0, z: 0, w: -.00456511788}
        outSlope: {x: -.0326925367, y: 0, z: 0, w: -.00456511788}
        tangentMode: 0
      - time: .500000179
        value: {x: -.138820231, y: 0, z: 0, w: .990317583}
        inSlope: {x: .00253647752, y: 0, z: 0, w: .000354051939}
        outSlope: {x: .00253647752, y: 0, z: 0, w: .000354051939}
        tangentMode: 0
      - time: .51666683
        value: {x: -.138479337, y: 0, z: 0, w: .990365326}
        inSlope: {x: .0377659872, y: 0, z: 0, w: .00526965177}
        outSlope: {x: .0377659872, y: 0, z: 0, w: .00526965177}
        tangentMode: 0
      - time: .53333348
        value: {x: -.137561366, y: 0, z: 0, w: .990493238}
        inSlope: {x: .0714858547, y: 0, z: 0, w: .00990808941}
        outSlope: {x: .0714858547, y: 0, z: 0, w: .00990808941}
        tangentMode: 0
      - time: .550000131
        value: {x: -.136096478, y: 0, z: 0, w: .990695596}
        inSlope: {x: .103399701, y: 0, z: 0, w: .0141763818}
        outSlope: {x: .103399701, y: 0, z: 0, w: .0141763818}
        tangentMode: 1065353216
      - time: .566666782
        value: {x: -.134114712, y: 0, z: 0, w: .990965784}
        inSlope: {x: .133511543, y: 0, z: 0, w: .0180351902}
        outSlope: {x: .133511543, y: 0, z: 0, w: .0180351902}
        tangentMode: 1065353216
      - time: .583333433
        value: {x: -.131646097, y: 0, z: 0, w: .991296768}
        inSlope: {x: .161825866, y: 0, z: 0, w: .0214541163}
        outSlope: {x: .161825866, y: 0, z: 0, w: .0214541163}
        tangentMode: 0
      - time: .600000083
        value: {x: -.128720522, y: 0, z: 0, w: .99168092}
        inSlope: {x: .188345343, y: 0, z: 0, w: .0244063362}
        outSlope: {x: .188345343, y: 0, z: 0, w: .0244063362}
        tangentMode: 0
      - time: .616666734
        value: {x: -.125367925, y: 0, z: 0, w: .992110312}
        inSlope: {x: .213068843, y: 0, z: 0, w: .0268811248}
        outSlope: {x: .213068843, y: 0, z: 0, w: .0268811248}
        tangentMode: 0
      - time: .633333385
        value: {x: -.121618234, y: 0, z: 0, w: .992576957}
        inSlope: {x: .235996172, y: 0, z: 0, w: .0288713239}
        outSlope: {x: .235996172, y: 0, z: 0, w: .0288713239}
        tangentMode: 0
      - time: .650000036
        value: {x: -.117501393, y: 0, z: 0, w: .993072689}
        inSlope: {x: .257125735, y: 0, z: 0, w: .0303787291}
        outSlope: {x: .257125735, y: 0, z: 0, w: .0303787291}
        tangentMode: 1065353216
      - time: .666666687
        value: {x: -.113047384, y: 0, z: 0, w: .99358958}
        inSlope: {x: .276453972, y: 0, z: 0, w: .0314122736}
        outSlope: {x: .276453972, y: 0, z: 0, w: .0314122736}
        tangentMode: 1065353216
      - time: .683333337
        value: {x: -.108286269, y: 0, z: 0, w: .994119763}
        inSlope: {x: .293976426, y: 0, z: 0, w: .031980902}
        outSlope: {x: .293976426, y: 0, z: 0, w: .031980902}
        tangentMode: 0
      - time: .699999988
        value: {x: -.103248179, y: 0, z: 0, w: .994655609}
        inSlope: {x: .309689283, y: 0, z: 0, w: .0321078598}
        outSlope: {x: .309689283, y: 0, z: 0, w: .0321078598}
        tangentMode: 0
      - time: .716666639
        value: {x: -.0979633033, y: 0, z: 0, w: .995190024}
        inSlope: {x: .323587596, y: 0, z: 0, w: .0318181813}
        outSlope: {x: .323587596, y: 0, z: 0, w: .0318181813}
        tangentMode: 0
      - time: .73333329
        value: {x: -.0924619362, y: 0, z: 0, w: .995716214}
        inSlope: {x: .33566606, y: 0, z: 0, w: .0311386883}
        outSlope: {x: .33566606, y: 0, z: 0, w: .0311386883}
        tangentMode: 0
      - time: .74999994
        value: {x: -.0867744461, y: 0, z: 0, w: .99622798}
        inSlope: {x: .345919013, y: 0, z: 0, w: .0301033556}
        outSlope: {x: .345919013, y: 0, z: 0, w: .0301033556}
        tangentMode: 1065353216
      - time: .766666591
        value: {x: -.0809313133, y: 0, z: 0, w: .996719658}
        inSlope: {x: .354340911, y: 0, z: 0, w: .0287497304}
        outSlope: {x: .354340911, y: 0, z: 0, w: .0287497304}
        tangentMode: 1065353216
      - time: .783333242
        value: {x: -.0749630928, y: 0, z: 0, w: .997186303}
        inSlope: {x: .360927552, y: 0, z: 0, w: .0271171592}
        outSlope: {x: .360927552, y: 0, z: 0, w: .0271171592}
        tangentMode: 0
      - time: .799999893
        value: {x: -.0689004064, y: 0, z: 0, w: .997623563}
        inSlope: {x: .365673959, y: 0, z: 0, w: .0252431855}
        outSlope: {x: .365673959, y: 0, z: 0, w: .0252431855}
        tangentMode: 0
      - time: .816666543
        value: {x: -.0627739727, y: 0, z: 0, w: .998027742}
        inSlope: {x: .36857599, y: 0, z: 0, w: .0231760964}
        outSlope: {x: .36857599, y: 0, z: 0, w: .0231760964}
        tangentMode: 0
      - time: .833333194
        value: {x: -.0566145517, y: 0, z: 0, w: .998396099}
        inSlope: {x: .369630337, y: 0, z: 0, w: .020960588}
        outSlope: {x: .369630337, y: 0, z: 0, w: .020960588}
        tangentMode: 0
      - time: .849999845
        value: {x: -.0504529737, y: 0, z: 0, w: .998726428}
        inSlope: {x: .368833601, y: 0, z: 0, w: .018637795}
        outSlope: {x: .368833601, y: 0, z: 0, w: .018637795}
        tangentMode: 1065353216
      - time: .866666496
        value: {x: -.0443201102, y: 0, z: 0, w: .999017358}
        inSlope: {x: .366183907, y: 0, z: 0, w: .0162559897}
        outSlope: {x: .366183907, y: 0, z: 0, w: .0162559897}
        tangentMode: 1065353216
      - time: .883333147
        value: {x: -.0382468551, y: 0, z: 0, w: .999268293}
        inSlope: {x: .361679465, y: 0, z: 0, w: .0138598811}
        outSlope: {x: .361679465, y: 0, z: 0, w: .0138598811}
        tangentMode: -1086310918
      - time: .899999797
        value: {x: -.0322641395, y: 0, z: 0, w: .999479353}
        inSlope: {x: .355319619, y: 0, z: 0, w: .0114923827}
        outSlope: {x: .355319619, y: 0, z: 0, w: .0114923827}
        tangentMode: -1086310988
      - time: .916666448
        value: {x: -.0264028795, y: 0, z: 0, w: .999651372}
        inSlope: {x: .347104609, y: 0, z: 0, w: .00919462182}
        outSlope: {x: .347104609, y: 0, z: 0, w: .00919462182}
        tangentMode: -1031428869
      - time: .933333099
        value: {x: -.0206939969, y: 0, z: 0, w: .999785841}
        inSlope: {x: .337034523, y: 0, z: 0, w: .00700772461}
        outSlope: {x: .337034523, y: 0, z: 0, w: .00700772461}
        tangentMode: 906388782
      - time: .94999975
        value: {x: -.0151684061, y: 0, z: 0, w: .999884963}
        inSlope: {x: .325110435, y: 0, z: 0, w: .00496745575}
        outSlope: {x: .325110435, y: 0, z: 0, w: .00496745575}
        tangentMode: -1234618203
      - time: .9666664
        value: {x: -.0098569924, y: 0, z: 0, w: .999951422}
        inSlope: {x: .311334163, y: 0, z: 0, w: .00310600083}
        outSlope: {x: .311334163, y: 0, z: 0, w: .00310600083}
        tangentMode: 1049396158
      - time: .983333051
        value: {x: -.00479061017, y: 0, z: 0, w: .999988496}
        inSlope: {x: .295707464, y: 0, z: 0, w: .00145732879}
        outSlope: {x: .295707464, y: 0, z: 0, w: .00145732879}
        tangentMode: -1121953474
      - time: 1
        value: {x: 0, y: 0, z: 0, w: 1}
        inSlope: {x: .287431747, y: 0, z: 0, w: .000690210087}
        outSlope: {x: .287431747, y: 0, z: 0, w: .000690210087}
        tangentMode: 1116054778
      m_PreInfinity: 2
      m_PostInfinity: 2
    path: 
  m_CompressedRotationCurves: []
  m_PositionCurves:
  - curve:
      serializedVersion: 2
      m_Curve:
      - time: 0
        value: {x: 0, y: .519999981, z: 0}
        inSlope: {x: 0, y: 1.72000003, z: 0}
        outSlope: {x: 0, y: 1.72000003, z: 0}
        tangentMode: 0
      - time: .5
        value: {x: 0, y: 1.38, z: 0}
        inSlope: {x: 0, y: 0, z: 0}
        outSlope: {x: 0, y: 0, z: 0}
        tangentMode: 0
      - time: 1
        value: {x: 0, y: .519999981, z: 0}
        inSlope: {x: 0, y: -1.72000003, z: 0}
        outSlope: {x: 0, y: -1.72000003, z: 0}
        tangentMode: 105445488
      m_PreInfinity: 2
      m_PostInfinity: 2
    path: 
  m_ScaleCurves: []
  m_FloatCurves: []
  m_PPtrCurves: []
  m_SampleRate: 60
  m_WrapMode: 0
  m_Bounds:
    m_Center: {x: 0, y: 0, z: 0}
    m_Extent: {x: 0, y: 0, z: 0}
  m_ClipBindingConstant:
    genericBindings:
    - path: 0
      attribute: 1
      script: {fileID: 0}
      classID: 4
      customType: 0
      isPPtrCurve: 0
    - path: 0
      attribute: 2
      script: {fileID: 0}
      classID: 4
      customType: 0
      isPPtrCurve: 0
    pptrCurveMapping: []
  m_AnimationClipSettings:
    serializedVersion: 2
    m_StartTime: 0
    m_StopTime: 1
    m_OrientationOffsetY: 0
    m_Level: 0
    m_CycleOffset: 0
    m_LoopTime: 1
    m_LoopBlend: 0
    m_LoopBlendOrientation: 0
    m_LoopBlendPositionY: 0
    m_LoopBlendPositionXZ: 0
    m_KeepOriginalOrientation: 0
    m_KeepOriginalPositionY: 1
    m_KeepOriginalPositionXZ: 0
    m_HeightFromFeet: 0
    m_Mirror: 0
  m_EditorCurves:
  - curve:
      serializedVersion: 2
      m_Curve:
      - time: 0
        value: 0
        inSlope: 0
        outSlope: 0
        tangentMode: 10
      - time: .5
        value: 0
        inSlope: 0
        outSlope: 0
        tangentMode: 10
      - time: 1
        value: 0
        inSlope: 0
        outSlope: 0
        tangentMode: 10
      m_PreInfinity: 2
      m_PostInfinity: 2
    attribute: m_LocalPosition.x
    path: 
    classID: 4
    script: {fileID: 0}
  - curve:
      serializedVersion: 2
      m_Curve:
      - time: 0
        value: .519999981
        inSlope: 1.72000003
        outSlope: 1.72000003
        tangentMode: 10
      - time: .5
        value: 1.38
        inSlope: 0
        outSlope: 0
        tangentMode: 10
      - time: 1
        value: .519999981
        inSlope: -1.72000003
        outSlope: -1.72000003
        tangentMode: 10
      m_PreInfinity: 2
      m_PostInfinity: 2
    attribute: m_LocalPosition.y
    path: 
    classID: 4
    script: {fileID: 0}
  - curve:
      serializedVersion: 2
      m_Curve:
      - time: 0
        value: 0
        inSlope: 0
        outSlope: 0
        tangentMode: 10
      - time: .5
        value: 0
        inSlope: 0
        outSlope: 0
        tangentMode: 10
      - time: 1
        value: 0
        inSlope: 0
        outSlope: 0
        tangentMode: 10
      m_PreInfinity: 2
      m_PostInfinity: 2
    attribute: m_LocalPosition.z
    path: 
    classID: 4
    script: {fileID: 0}
  - curve:
      serializedVersion: 2
      m_Curve:
      - time: 0
        value: -.00256089284
        inSlope: -.282307237
        outSlope: -.282307237
        tangentMode: 0
      - time: .0166666675
        value: -.00726601342
        inSlope: -.290581167
        outSlope: -.290581167
        tangentMode: 0
      - time: .0333333351
        value: -.0122469319
        inSlope: -.306204289
        outSlope: -.306204289
        tangentMode: 0
      - time: .0500000045
        value: -.0174728241
        inSlope: -.319977045
        outSlope: -.319977045
        tangentMode: 0
      - time: .0666666701
        value: -.0229128338
        inSlope: -.331897557
        outSlope: -.331897557
        tangentMode: 0
      - time: .0833333358
        value: -.0285360757
        inSlope: -.341964453
        outSlope: -.341964453
        tangentMode: 0
      - time: .100000001
        value: -.0343116485
        inSlope: -.350176752
        outSlope: -.350176752
        tangentMode: 0
      - time: .116666667
        value: -.040208634
        inSlope: -.356533915
        outSlope: -.356533915
        tangentMode: 0
      - time: .13333334
        value: -.0461961143
        inSlope: -.36103633
        outSlope: -.36103633
        tangentMode: 0
      - time: .150000006
        value: -.0522431806
        inSlope: -.363684893
        outSlope: -.363684893
        tangentMode: 0
      - time: .166666672
        value: -.0583189428
        inSlope: -.364480942
        outSlope: -.364480942
        tangentMode: 0
      - time: .183333337
        value: -.0643925443
        inSlope: -.363427043
        outSlope: -.363427043
        tangentMode: 0
      - time: .200000003
        value: -.0704331771
        inSlope: -.360525787
        outSlope: -.360525787
        tangentMode: 0
      - time: .216666669
        value: -.0764100701
        inSlope: -.355780959
        outSlope: -.355780959
        tangentMode: 0
      - time: .233333334
        value: -.0822925419
        inSlope: -.34919703
        outSlope: -.34919703
        tangentMode: 0
      - time: .25
        value: -.0880499706
        inSlope: -.340778351
        outSlope: -.340778351
        tangentMode: 0
      - time: .266666681
        value: -.0936518237
        inSlope: -.330529451
        outSlope: -.330529451
        tangentMode: 0
      - time: .283333361
        value: -.0990676284
        inSlope: -.318455517
        outSlope: -.318455517
        tangentMode: 0
      - time: .300000042
        value: -.104267016
        inSlope: -.30456233
        outSlope: -.30456233
        tangentMode: 0
      - time: .316666722
        value: -.109219715
        inSlope: -.288855135
        outSlope: -.288855135
        tangentMode: 0
      - time: .333333403
        value: -.113895528
        inSlope: -.271338284
        outSlope: -.271338284
        tangentMode: 0
      - time: .350000083
        value: -.118264332
        inSlope: -.252016127
        outSlope: -.252016127
        tangentMode: 0
      - time: .366666764
        value: -.122296073
        inSlope: -.230892852
        outSlope: -.230892852
        tangentMode: 0
      - time: .383333445
        value: -.125960767
        inSlope: -.207971394
        outSlope: -.207971394
        tangentMode: 0
      - time: .400000125
        value: -.129228458
        inSlope: -.183253288
        outSlope: -.183253288
        tangentMode: 0
      - time: .416666806
        value: -.132069215
        inSlope: -.156739667
        outSlope: -.156739667
        tangentMode: 0
      - time: .433333486
        value: -.134453118
        inSlope: -.128429428
        outSlope: -.128429428
        tangentMode: 0
      - time: .450000167
        value: -.1363502
        inSlope: -.0983207598
        outSlope: -.0983207598
        tangentMode: 0
      - time: .466666847
        value: -.137730479
        inSlope: -.066410549
        outSlope: -.066410549
        tangentMode: 0
      - time: .483333528
        value: -.138563886
        inSlope: -.0326925367
        outSlope: -.0326925367
        tangentMode: 0
      - time: .500000179
        value: -.138820231
        inSlope: .00253647752
        outSlope: .00253647752
        tangentMode: 0
      - time: .51666683
        value: -.138479337
        inSlope: .0377659872
        outSlope: .0377659872
        tangentMode: 0
      - time: .53333348
        value: -.137561366
        inSlope: .0714858547
        outSlope: .0714858547
        tangentMode: 0
      - time: .550000131
        value: -.136096478
        inSlope: .103399701
        outSlope: .103399701
        tangentMode: 0
      - time: .566666782
        value: -.134114712
        inSlope: .133511543
        outSlope: .133511543
        tangentMode: 0
      - time: .583333433
        value: -.131646097
        inSlope: .161825866
        outSlope: .161825866
        tangentMode: 0
      - time: .600000083
        value: -.128720522
        inSlope: .188345343
        outSlope: .188345343
        tangentMode: 0
      - time: .616666734
        value: -.125367925
        inSlope: .213068843
        outSlope: .213068843
        tangentMode: 0
      - time: .633333385
        value: -.121618234
        inSlope: .235996172
        outSlope: .235996172
        tangentMode: 0
      - time: .650000036
        value: -.117501393
        inSlope: .257125735
        outSlope: .257125735
        tangentMode: 0
      - time: .666666687
        value: -.113047384
        inSlope: .276453972
        outSlope: .276453972
        tangentMode: 0
      - time: .683333337
        value: -.108286269
        inSlope: .293976426
        outSlope: .293976426
        tangentMode: 0
      - time: .699999988
        value: -.103248179
        inSlope: .309689283
        outSlope: .309689283
        tangentMode: 0
      - time: .716666639
        value: -.0979633033
        inSlope: .323587596
        outSlope: .323587596
        tangentMode: 0
      - time: .73333329
        value: -.0924619362
        inSlope: .33566606
        outSlope: .33566606
        tangentMode: 0
      - time: .74999994
        value: -.0867744461
        inSlope: .345919013
        outSlope: .345919013
        tangentMode: 0
      - time: .766666591
        value: -.0809313133
        inSlope: .354340911
        outSlope: .354340911
        tangentMode: 0
      - time: .783333242
        value: -.0749630928
        inSlope: .360927552
        outSlope: .360927552
        tangentMode: 0
      - time: .799999893
        value: -.0689004064
        inSlope: .365673959
        outSlope: .365673959
        tangentMode: 0
      - time: .816666543
        value: -.0627739727
        inSlope: .36857599
        outSlope: .36857599
        tangentMode: 0
      - time: .833333194
        value: -.0566145517
        inSlope: .369630337
        outSlope: .369630337
        tangentMode: 0
      - time: .849999845
        value: -.0504529737
        inSlope: .368833601
        outSlope: .368833601
        tangentMode: 0
      - time: .866666496
        value: -.0443201102
        inSlope: .366183907
        outSlope: .366183907
        tangentMode: 0
      - time: .883333147
        value: -.0382468551
        inSlope: .361679465
        outSlope: .361679465
        tangentMode: 0
      - time: .899999797
        value: -.0322641395
        inSlope: .355319619
        outSlope: .355319619
        tangentMode: 0
      - time: .916666448
        value: -.0264028795
        inSlope: .347104609
        outSlope: .347104609
        tangentMode: 0
      - time: .933333099
        value: -.0206939969
        inSlope: .337034523
        outSlope: .337034523
        tangentMode: 0
      - time: .94999975
        value: -.0151684061
        inSlope: .325110435
        outSlope: .325110435
        tangentMode: 0
      - time: .9666664
        value: -.0098569924
        inSlope: .311334163
        outSlope: .311334163
        tangentMode: 0
      - time: .983333051
        value: -.00479061017
        inSlope: .295707464
        outSlope: .295707464
        tangentMode: 0
      - time: 1
        value: 0
        inSlope: .287431747
        outSlope: .287431747
        tangentMode: 0
      m_PreInfinity: 2
      m_PostInfinity: 2
    attribute: m_LocalRotation.x
    path: 
    classID: 4
    script: {fileID: 0}
  - curve:
      serializedVersion: 2
      m_Curve:
      - time: 0
        value: 0
        inSlope: 0
        outSlope: 0
        tangentMode: 0
      - time: .0166666675
        value: 0
        inSlope: 0
        outSlope: 0
        tangentMode: 0
      - time: .0333333351
        value: 0
        inSlope: 0
        outSlope: 0
        tangentMode: 0
      - time: .0500000045
        value: 0
        inSlope: 0
        outSlope: 0
        tangentMode: 0
      - time: .0666666701
        value: 0
        inSlope: 0
        outSlope: 0
        tangentMode: 0
      - time: .0833333358
        value: 0
        inSlope: 0
        outSlope: 0
        tangentMode: 0
      - time: .100000001
        value: 0
        inSlope: 0
        outSlope: 0
        tangentMode: 0
      - time: .116666667
        value: 0
        inSlope: 0
        outSlope: 0
        tangentMode: 0
      - time: .13333334
        value: 0
        inSlope: 0
        outSlope: 0
        tangentMode: 0
      - time: .150000006
        value: 0
        inSlope: 0
        outSlope: 0
        tangentMode: 0
      - time: .166666672
        value: 0
        inSlope: 0
        outSlope: 0
        tangentMode: 0
      - time: .183333337
        value: 0
        inSlope: 0
        outSlope: 0
        tangentMode: 0
      - time: .200000003
        value: 0
        inSlope: 0
        outSlope: 0
        tangentMode: 0
      - time: .216666669
        value: 0
        inSlope: 0
        outSlope: 0
        tangentMode: 0
      - time: .233333334
        value: 0
        inSlope: 0
        outSlope: 0
        tangentMode: 0
      - time: .25
        value: 0
        inSlope: 0
        outSlope: 0
        tangentMode: 0
      - time: .266666681
        value: 0
        inSlope: 0
        outSlope: 0
        tangentMode: 0
      - time: .283333361
        value: 0
        inSlope: 0
        outSlope: 0
        tangentMode: 0
      - time: .300000042
        value: 0
        inSlope: 0
        outSlope: 0
        tangentMode: 0
      - time: .316666722
        value: 0
        inSlope: 0
        outSlope: 0
        tangentMode: 0
      - time: .333333403
        value: 0
        inSlope: 0
        outSlope: 0
        tangentMode: 0
      - time: .350000083
        value: 0
        inSlope: 0
        outSlope: 0
        tangentMode: 0
      - time: .366666764
        value: 0
        inSlope: 0
        outSlope: 0
        tangentMode: 0
      - time: .383333445
        value: 0
        inSlope: 0
        outSlope: 0
        tangentMode: 0
      - time: .400000125
        value: 0
        inSlope: 0
        outSlope: 0
        tangentMode: 0
      - time: .416666806
        value: 0
        inSlope: 0
        outSlope: 0
        tangentMode: 0
      - time: .433333486
        value: 0
        inSlope: 0
        outSlope: 0
        tangentMode: 0
      - time: .450000167
        value: 0
        inSlope: 0
        outSlope: 0
        tangentMode: 0
      - time: .466666847
        value: 0
        inSlope: 0
        outSlope: 0
        tangentMode: 0
      - time: .483333528
        value: 0
        inSlope: 0
        outSlope: 0
        tangentMode: 0
      - time: .500000179
        value: 0
        inSlope: 0
        outSlope: 0
        tangentMode: 0
      - time: .51666683
        value: 0
        inSlope: 0
        outSlope: 0
        tangentMode: 0
      - time: .53333348
        value: 0
        inSlope: 0
        outSlope: 0
        tangentMode: 0
      - time: .550000131
        value: 0
        inSlope: 0
        outSlope: 0
        tangentMode: 0
      - time: .566666782
        value: 0
        inSlope: 0
        outSlope: 0
        tangentMode: 0
      - time: .583333433
        value: 0
        inSlope: 0
        outSlope: 0
        tangentMode: 0
      - time: .600000083
        value: 0
        inSlope: 0
        outSlope: 0
        tangentMode: 0
      - time: .616666734
        value: 0
        inSlope: 0
        outSlope: 0
        tangentMode: 0
      - time: .633333385
        value: 0
        inSlope: 0
        outSlope: 0
        tangentMode: 0
      - time: .650000036
        value: 0
        inSlope: 0
        outSlope: 0
        tangentMode: 0
      - time: .666666687
        value: 0
        inSlope: 0
        outSlope: 0
        tangentMode: 0
      - time: .683333337
        value: 0
        inSlope: 0
        outSlope: 0
        tangentMode: 0
      - time: .699999988
        value: 0
        inSlope: 0
        outSlope: 0
        tangentMode: 0
      - time: .716666639
        value: 0
        inSlope: 0
        outSlope: 0
        tangentMode: 0
      - time: .73333329
        value: 0
        inSlope: 0
        outSlope: 0
        tangentMode: 0
      - time: .74999994
        value: 0
        inSlope: 0
        outSlope: 0
        tangentMode: 0
      - time: .766666591
        value: 0
        inSlope: 0
        outSlope: 0
        tangentMode: 0
      - time: .783333242
        value: 0
        inSlope: 0
        outSlope: 0
        tangentMode: 0
      - time: .799999893
        value: 0
        inSlope: 0
        outSlope: 0
        tangentMode: 0
      - time: .816666543
        value: 0
        inSlope: 0
        outSlope: 0
        tangentMode: 0
      - time: .833333194
        value: 0
        inSlope: 0
        outSlope: 0
        tangentMode: 0
      - time: .849999845
        value: 0
        inSlope: 0
        outSlope: 0
        tangentMode: 0
      - time: .866666496
        value: 0
        inSlope: 0
        outSlope: 0
        tangentMode: 0
      - time: .883333147
        value: 0
        inSlope: 0
        outSlope: 0
        tangentMode: 0
      - time: .899999797
        value: 0
        inSlope: 0
        outSlope: 0
        tangentMode: 0
      - time: .916666448
        value: 0
        inSlope: 0
        outSlope: 0
        tangentMode: 0
      - time: .933333099
        value: 0
        inSlope: 0
        outSlope: 0
        tangentMode: 0
      - time: .94999975
        value: 0
        inSlope: 0
        outSlope: 0
        tangentMode: 0
      - time: .9666664
        value: 0
        inSlope: 0
        outSlope: 0
        tangentMode: 0
      - time: .983333051
        value: 0
        inSlope: 0
        outSlope: 0
        tangentMode: 0
      - time: 1
        value: 0
        inSlope: 0
        outSlope: 0
        tangentMode: 0
      m_PreInfinity: 2
      m_PostInfinity: 2
    attribute: m_LocalRotation.y
    path: 
    classID: 4
    script: {fileID: 0}
  - curve:
      serializedVersion: 2
      m_Curve:
      - time: 0
        value: 0
        inSlope: 0
        outSlope: 0
        tangentMode: 0
      - time: .0166666675
        value: 0
        inSlope: 0
        outSlope: 0
        tangentMode: 0
      - time: .0333333351
        value: 0
        inSlope: 0
        outSlope: 0
        tangentMode: 0
      - time: .0500000045
        value: 0
        inSlope: 0
        outSlope: 0
        tangentMode: 0
      - time: .0666666701
        value: 0
        inSlope: 0
        outSlope: 0
        tangentMode: 0
      - time: .0833333358
        value: 0
        inSlope: 0
        outSlope: 0
        tangentMode: 0
      - time: .100000001
        value: 0
        inSlope: 0
        outSlope: 0
        tangentMode: 0
      - time: .116666667
        value: 0
        inSlope: 0
        outSlope: 0
        tangentMode: 0
      - time: .13333334
        value: 0
        inSlope: 0
        outSlope: 0
        tangentMode: 0
      - time: .150000006
        value: 0
        inSlope: 0
        outSlope: 0
        tangentMode: 0
      - time: .166666672
        value: 0
        inSlope: 0
        outSlope: 0
        tangentMode: 0
      - time: .183333337
        value: 0
        inSlope: 0
        outSlope: 0
        tangentMode: 0
      - time: .200000003
        value: 0
        inSlope: 0
        outSlope: 0
        tangentMode: 0
      - time: .216666669
        value: 0
        inSlope: 0
        outSlope: 0
        tangentMode: 0
      - time: .233333334
        value: 0
        inSlope: 0
        outSlope: 0
        tangentMode: 0
      - time: .25
        value: 0
        inSlope: 0
        outSlope: 0
        tangentMode: 0
      - time: .266666681
        value: 0
        inSlope: 0
        outSlope: 0
        tangentMode: 0
      - time: .283333361
        value: 0
        inSlope: 0
        outSlope: 0
        tangentMode: 0
      - time: .300000042
        value: 0
        inSlope: 0
        outSlope: 0
        tangentMode: 0
      - time: .316666722
        value: 0
        inSlope: 0
        outSlope: 0
        tangentMode: 0
      - time: .333333403
        value: 0
        inSlope: 0
        outSlope: 0
        tangentMode: 0
      - time: .350000083
        value: 0
        inSlope: 0
        outSlope: 0
        tangentMode: 0
      - time: .366666764
        value: 0
        inSlope: 0
        outSlope: 0
        tangentMode: 0
      - time: .383333445
        value: 0
        inSlope: 0
        outSlope: 0
        tangentMode: 0
      - time: .400000125
        value: 0
        inSlope: 0
        outSlope: 0
        tangentMode: 0
      - time: .416666806
        value: 0
        inSlope: 0
        outSlope: 0
        tangentMode: 0
      - time: .433333486
        value: 0
        inSlope: 0
        outSlope: 0
        tangentMode: 0
      - time: .450000167
        value: 0
        inSlope: 0
        outSlope: 0
        tangentMode: 0
      - time: .466666847
        value: 0
        inSlope: 0
        outSlope: 0
        tangentMode: 0
      - time: .483333528
        value: 0
        inSlope: 0
        outSlope: 0
        tangentMode: 0
      - time: .500000179
        value: 0
        inSlope: 0
        outSlope: 0
        tangentMode: 0
      - time: .51666683
        value: 0
        inSlope: 0
        outSlope: 0
        tangentMode: 0
      - time: .53333348
        value: 0
        inSlope: 0
        outSlope: 0
        tangentMode: 0
      - time: .550000131
        value: 0
        inSlope: 0
        outSlope: 0
        tangentMode: 0
      - time: .566666782
        value: 0
        inSlope: 0
        outSlope: 0
        tangentMode: 0
      - time: .583333433
        value: 0
        inSlope: 0
        outSlope: 0
        tangentMode: 0
      - time: .600000083
        value: 0
        inSlope: 0
        outSlope: 0
        tangentMode: 0
      - time: .616666734
        value: 0
        inSlope: 0
        outSlope: 0
        tangentMode: 0
      - time: .633333385
        value: 0
        inSlope: 0
        outSlope: 0
        tangentMode: 0
      - time: .650000036
        value: 0
        inSlope: 0
        outSlope: 0
        tangentMode: 0
      - time: .666666687
        value: 0
        inSlope: 0
        outSlope: 0
        tangentMode: 0
      - time: .683333337
        value: 0
        inSlope: 0
        outSlope: 0
        tangentMode: 0
      - time: .699999988
        value: 0
        inSlope: 0
        outSlope: 0
        tangentMode: 0
      - time: .716666639
        value: 0
        inSlope: 0
        outSlope: 0
        tangentMode: 0
      - time: .73333329
        value: 0
        inSlope: 0
        outSlope: 0
        tangentMode: 0
      - time: .74999994
        value: 0
        inSlope: 0
        outSlope: 0
        tangentMode: 0
      - time: .766666591
        value: 0
        inSlope: 0
        outSlope: 0
        tangentMode: 0
      - time: .783333242
        value: 0
        inSlope: 0
        outSlope: 0
        tangentMode: 0
      - time: .799999893
        value: 0
        inSlope: 0
        outSlope: 0
        tangentMode: 0
      - time: .816666543
        value: 0
        inSlope: 0
        outSlope: 0
        tangentMode: 0
      - time: .833333194
        value: 0
        inSlope: 0
        outSlope: 0
        tangentMode: 0
      - time: .849999845
        value: 0
        inSlope: 0
        outSlope: 0
        tangentMode: 0
      - time: .866666496
        value: 0
        inSlope: 0
        outSlope: 0
        tangentMode: 0
      - time: .883333147
        value: 0
        inSlope: 0
        outSlope: 0
        tangentMode: 0
      - time: .899999797
        value: 0
        inSlope: 0
        outSlope: 0
        tangentMode: 0
      - time: .916666448
        value: 0
        inSlope: 0
        outSlope: 0
        tangentMode: 0
      - time: .933333099
        value: 0
        inSlope: 0
        outSlope: 0
        tangentMode: 0
      - time: .94999975
        value: 0
        inSlope: 0
        outSlope: 0
        tangentMode: 0
      - time: .9666664
        value: 0
        inSlope: 0
        outSlope: 0
        tangentMode: 0
      - time: .983333051
        value: 0
        inSlope: 0
        outSlope: 0
        tangentMode: 0
      - time: 1
        value: 0
        inSlope: 0
        outSlope: 0
        tangentMode: 0
      m_PreInfinity: 2
      m_PostInfinity: 2
    attribute: m_LocalRotation.z
    path: 
    classID: 4
    script: {fileID: 0}
  - curve:
      serializedVersion: 2
      m_Curve:
      - time: 0
        value: .999996722
        inSlope: -.00138759601
        outSlope: -.00138759601
        tangentMode: 0
      - time: .0166666675
        value: .999973595
        inSlope: -.0021511314
        outSlope: -.0021511314
        tangentMode: 0
      - time: .0333333351
        value: .999925017
        inSlope: -.00378727866
        outSlope: -.00378727866
        tangentMode: 0
      - time: .0500000045
        value: .999847353
        inSlope: -.00562727451
        outSlope: -.00562727451
        tangentMode: 0
      - time: .0666666701
        value: .999737442
        inSlope: -.00763714407
        outSlope: -.00763714407
        tangentMode: 0
      - time: .0833333358
        value: .999592781
        inSlope: -.0097882757
        outSlope: -.0097882757
        tangentMode: 0
      - time: .100000001
        value: .999411166
        inSlope: -.0120449075
        outSlope: -.0120449075
        tangentMode: 0
      - time: .116666667
        value: .999191284
        inSlope: -.0143641215
        outSlope: -.0143641215
        tangentMode: 0
      - time: .13333334
        value: .998932362
        inSlope: -.016706584
        outSlope: -.016706584
        tangentMode: 0
      - time: .150000006
        value: .998634398
        inSlope: -.0190311689
        outSlope: -.0190311689
        tangentMode: 0
      - time: .166666672
        value: .998297989
        inSlope: -.0212931652
        outSlope: -.0212931652
        tangentMode: 0
      - time: .183333337
        value: .997924626
        inSlope: -.0234442968
        outSlope: -.0234442968
        tangentMode: 0
      - time: .200000003
        value: .997516513
        inSlope: -.0254452247
        outSlope: -.0254452247
        tangentMode: 0
      - time: .216666669
        value: .997076452
        inSlope: -.0272494573
        outSlope: -.0272494573
        tangentMode: 0
      - time: .233333334
        value: .996608198
        inSlope: -.0288122911
        outSlope: -.0288122911
        tangentMode: 0
      - time: .25
        value: .996116042
        inSlope: -.0300961621
        outSlope: -.0300961621
        tangentMode: 0
      - time: .266666681
        value: .995604992
        inSlope: -.0310599543
        outSlope: -.0310599543
        tangentMode: 0
      - time: .283333361
        value: .995080709
        inSlope: -.0316697098
        outSlope: -.0316697098
        tangentMode: 0
      - time: .300000042
        value: .994549334
        inSlope: -.0318914391
        outSlope: -.0318914391
        tangentMode: 0
      - time: .316666722
        value: .994017661
        inSlope: -.0316983201
        outSlope: -.0316983201
        tangentMode: 0
      - time: .333333403
        value: .993492723
        inSlope: -.0310653187
        outSlope: -.0310653187
        tangentMode: 0
      - time: .350000083
        value: .992982149
        inSlope: -.0299709775
        outSlope: -.0299709775
        tangentMode: 0
      - time: .366666764
        value: .992493689
        inSlope: -.0284081474
        outSlope: -.0284081474
        tangentMode: 0
      - time: .383333445
        value: .99203521
        inSlope: -.0263660923
        outSlope: -.0263660923
        tangentMode: 0
      - time: .400000125
        value: .991614819
        inSlope: -.0238412432
        outSlope: -.0238412432
        tangentMode: 0
      - time: .416666806
        value: .991240501
        inSlope: -.0208461098
        outSlope: -.0208461098
        tangentMode: 0
      - time: .433333486
        value: .990919948
        inSlope: -.0173932165
        outSlope: -.0173932165
        tangentMode: 0
      - time: .450000167
        value: .990660727
        inSlope: -.0135058053
        outSlope: -.0135058053
        tangentMode: 0
      - time: .466666847
        value: .990469754
        inSlope: -.00921606272
        outSlope: -.00921606272
        tangentMode: 0
      - time: .483333528
        value: .990353525
        inSlope: -.00456511788
        outSlope: -.00456511788
        tangentMode: 0
      - time: .500000179
        value: .990317583
        inSlope: .000354051939
        outSlope: .000354051939
        tangentMode: 0
      - time: .51666683
        value: .990365326
        inSlope: .00526965177
        outSlope: .00526965177
        tangentMode: 0
      - time: .53333348
        value: .990493238
        inSlope: .00990808941
        outSlope: .00990808941
        tangentMode: 0
      - time: .550000131
        value: .990695596
        inSlope: .0141763818
        outSlope: .0141763818
        tangentMode: 0
      - time: .566666782
        value: .990965784
        inSlope: .0180351902
        outSlope: .0180351902
        tangentMode: 0
      - time: .583333433
        value: .991296768
        inSlope: .0214541163
        outSlope: .0214541163
        tangentMode: 0
      - time: .600000083
        value: .99168092
        inSlope: .0244063362
        outSlope: .0244063362
        tangentMode: 0
      - time: .616666734
        value: .992110312
        inSlope: .0268811248
        outSlope: .0268811248
        tangentMode: 0
      - time: .633333385
        value: .992576957
        inSlope: .0288713239
        outSlope: .0288713239
        tangentMode: 0
      - time: .650000036
        value: .993072689
        inSlope: .0303787291
        outSlope: .0303787291
        tangentMode: 0
      - time: .666666687
        value: .99358958
        inSlope: .0314122736
        outSlope: .0314122736
        tangentMode: 0
      - time: .683333337
        value: .994119763
        inSlope: .031980902
        outSlope: .031980902
        tangentMode: 0
      - time: .699999988
        value: .994655609
        inSlope: .0321078598
        outSlope: .0321078598
        tangentMode: 0
      - time: .716666639
        value: .995190024
        inSlope: .0318181813
        outSlope: .0318181813
        tangentMode: 0
      - time: .73333329
        value: .995716214
        inSlope: .0311386883
        outSlope: .0311386883
        tangentMode: 0
      - time: .74999994
        value: .99622798
        inSlope: .0301033556
        outSlope: .0301033556
        tangentMode: 0
      - time: .766666591
        value: .996719658
        inSlope: .0287497304
        outSlope: .0287497304
        tangentMode: 0
      - time: .783333242
        value: .997186303
        inSlope: .0271171592
        outSlope: .0271171592
        tangentMode: 0
      - time: .799999893
        value: .997623563
        inSlope: .0252431855
        outSlope: .0252431855
        tangentMode: 0
      - time: .816666543
        value: .998027742
        inSlope: .0231760964
        outSlope: .0231760964
        tangentMode: 0
      - time: .833333194
        value: .998396099
        inSlope: .020960588
        outSlope: .020960588
        tangentMode: 0
      - time: .849999845
        value: .998726428
        inSlope: .018637795
        outSlope: .018637795
        tangentMode: 0
      - time: .866666496
        value: .999017358
        inSlope: .0162559897
        outSlope: .0162559897
        tangentMode: 0
      - time: .883333147
        value: .999268293
        inSlope: .0138598811
        outSlope: .0138598811
        tangentMode: 0
      - time: .899999797
        value: .999479353
        inSlope: .0114923827
        outSlope: .0114923827
        tangentMode: 0
      - time: .916666448
        value: .999651372
        inSlope: .00919462182
        outSlope: .00919462182
        tangentMode: 0
      - time: .933333099
        value: .999785841
        inSlope: .00700772461
        outSlope: .00700772461
        tangentMode: 0
      - time: .94999975
        value: .999884963
        inSlope: .00496745575
        outSlope: .00496745575
        tangentMode: 0
      - time: .9666664
        value: .999951422
        inSlope: .00310600083
        outSlope: .00310600083
        tangentMode: 0
      - time: .983333051
        value: .999988496
        inSlope: .00145732879
        outSlope: .00145732879
        tangentMode: 0
      - time: 1
        value: 1
        inSlope: .000690210087
        outSlope: .000690210087
        tangentMode: 0
      m_PreInfinity: 2
      m_PostInfinity: 2
    attribute: m_LocalRotation.w
    path: 
    classID: 4
    script: {fileID: 0}
  m_EulerEditorCurves:
  - curve:
      serializedVersion: 2
      m_Curve:
      - time: 0
        value: -.293457031
        inSlope: -31.3314209
        outSlope: -31.3314209
        tangentMode: 10
      - time: .5
        value: -15.9591675
        inSlope: .293457031
        outSlope: .293457031
        tangentMode: 10
      - time: 1
        value: 0
        inSlope: 31.918335
        outSlope: 31.918335
        tangentMode: 10
      m_PreInfinity: 2
      m_PostInfinity: 2
    attribute: localEulerAnglesBaked.x
    path: 
    classID: 4
    script: {fileID: 0}
  - curve:
      serializedVersion: 2
      m_Curve:
      - time: 0
        value: 0
        inSlope: 0
        outSlope: 0
        tangentMode: 10
      - time: .5
        value: 0
        inSlope: 0
        outSlope: 0
        tangentMode: 10
      - time: 1
        value: 0
        inSlope: 0
        outSlope: 0
        tangentMode: 10
      m_PreInfinity: 2
      m_PostInfinity: 2
    attribute: localEulerAnglesBaked.y
    path: 
    classID: 4
    script: {fileID: 0}
  - curve:
      serializedVersion: 2
      m_Curve:
      - time: 0
        value: 0
        inSlope: 0
        outSlope: 0
        tangentMode: 10
      - time: .5
        value: 0
        inSlope: 0
        outSlope: 0
        tangentMode: 10
      - time: 1
        value: 0
        inSlope: 0
        outSlope: 0
        tangentMode: 10
      m_PreInfinity: 2
      m_PostInfinity: 2
    attribute: localEulerAnglesBaked.z
    path: 
    classID: 4
    script: {fileID: 0}
  m_Events: []
