%YAML 1.1
%TAG !u! tag:unity3d.com,2011:
--- !u!74 &7400000
AnimationClip:
  m_ObjectHideFlags: 0
  m_PrefabParentObject: {fileID: 0}
  m_PrefabInternal: {fileID: 0}
  m_Name: winter
  serializedVersion: 4
  m_AnimationType: 1
  m_Compressed: 0
  m_UseHighQualityCurve: 1
  m_RotationCurves:
  - curve:
      serializedVersion: 2
      m_Curve:
      - time: 0
        value: {x: -0, y: -0, z: -0, w: -1}
        inSlope: {x: 0, y: -3.9241879, z: 0, w: .128463507}
        outSlope: {x: 0, y: -3.9241879, z: 0, w: .128463507}
        tangentMode: 23
      - time: .0166666675
        value: {x: -0, y: -.0654031336, z: -0, w: -.997858942}
        inSlope: {x: 0, y: -3.91578579, z: 0, w: .256653428}
        outSlope: {x: 0, y: -3.91578579, z: 0, w: .256653428}
        tangentMode: 0
      - time: .0333333351
        value: {x: -0, y: -.1305262, z: -0, w: -.991444886}
        inSlope: {x: 0, y: -3.8906157, z: 0, w: .512210667}
        outSlope: {x: 0, y: -3.8906157, z: 0, w: .512210667}
        tangentMode: 151355956
      - time: .0500000045
        value: {x: -0, y: -.195090339, z: -0, w: -.980785251}
        inSlope: {x: 0, y: -3.84878516, z: 0, w: .76557219}
        outSlope: {x: 0, y: -3.84878516, z: 0, w: .76557219}
        tangentMode: 15
      - time: .0666666701
        value: {x: -0, y: -.258819044, z: -0, w: -.965925813}
        inSlope: {x: 0, y: -3.79047346, z: 0, w: 1.01565433}
        outSlope: {x: 0, y: -3.79047346, z: 0, w: 1.01565433}
        tangentMode: 157876908
      - time: .0833333358
        value: {x: -0, y: -.321439445, z: -0, w: -.94693011}
        inSlope: {x: 0, y: -3.71593261, z: 0, w: 1.26138937}
        outSlope: {x: 0, y: -3.71593261, z: 0, w: 1.26138937}
        tangentMode: 151478528
      - time: .100000001
        value: {x: -0, y: -.382683456, z: -0, w: -.923879504}
        inSlope: {x: 0, y: -3.62547779, z: 0, w: 1.50172067}
        outSlope: {x: 0, y: -3.62547779, z: 0, w: 1.50172067}
        tangentMode: 0
      - time: .116666667
        value: {x: -0, y: -.442288697, z: -0, w: -.896872759}
        inSlope: {x: 0, y: -3.51949573, z: 0, w: 1.73562312}
        outSlope: {x: 0, y: -3.51949573, z: 0, w: 1.73562312}
        tangentMode: 151584883
      - time: .13333334
        value: {x: -0, y: -.5, z: -0, w: -.866025388}
        inSlope: {x: 0, y: -3.39844584, z: 0, w: 1.96209466}
        outSlope: {x: 0, y: -3.39844584, z: 0, w: 1.96209466}
        tangentMode: 158114560
      - time: .150000006
        value: {x: -0, y: -.555570245, z: -0, w: -.831469595}
        inSlope: {x: 0, y: -3.26284313, z: 0, w: 2.18016243}
        outSlope: {x: 0, y: -3.26284313, z: 0, w: 2.18016243}
        tangentMode: 0
      - time: .166666672
        value: {x: -0, y: -.60876143, z: -0, w: -.793353319}
        inSlope: {x: 0, y: -3.11326694, z: 0, w: 2.3888936}
        outSlope: {x: 0, y: -3.11326694, z: 0, w: 2.3888936}
        tangentMode: 151533444
      - time: .183333337
        value: {x: -0, y: -.659345806, z: -0, w: -.751839817}
        inSlope: {x: 0, y: -2.9503603, z: 0, w: 2.58739662}
        outSlope: {x: 0, y: -2.9503603, z: 0, w: 2.58739662}
        tangentMode: 0
      - time: .200000003
        value: {x: -0, y: -.707106769, z: -0, w: -.707106769}
        inSlope: {x: 0, y: -2.77482057, z: 0, w: 2.77482057}
        outSlope: {x: 0, y: -2.77482057, z: 0, w: 2.77482057}
        tangentMode: 15
      - time: .216666669
        value: {x: -0, y: -.751839817, z: -0, w: -.659345806}
        inSlope: {x: 0, y: -2.58739662, z: 0, w: 2.9503603}
        outSlope: {x: 0, y: -2.58739662, z: 0, w: 2.9503603}
        tangentMode: 152770388
      - time: .233333334
        value: {x: -0, y: -.793353319, z: -0, w: -.60876143}
        inSlope: {x: 0, y: -2.3888936, z: 0, w: 3.11326694}
        outSlope: {x: 0, y: -2.3888936, z: 0, w: 3.11326694}
        tangentMode: 151393080
      - time: .25
        value: {x: -0, y: -.831469595, z: -0, w: -.555570245}
        inSlope: {x: 0, y: -2.18016315, z: 0, w: 3.26284266}
        outSlope: {x: 0, y: -2.18016315, z: 0, w: 3.26284266}
        tangentMode: 151696928
      - time: .266666681
        value: {x: -0, y: -.866025448, z: -0, w: -.49999997}
        inSlope: {x: 0, y: -1.96209502, z: 0, w: 3.39844704}
        outSlope: {x: 0, y: -1.96209502, z: 0, w: 3.39844704}
        tangentMode: 151228668
      - time: .283333361
        value: {x: -0, y: -.896872818, z: -0, w: -.442288578}
        inSlope: {x: 0, y: -1.73562205, z: 0, w: 3.51949692}
        outSlope: {x: 0, y: -1.73562205, z: 0, w: 3.51949692}
        tangentMode: 151672760
      - time: .300000042
        value: {x: -0, y: -.923879564, z: -0, w: -.382683307}
        inSlope: {x: 0, y: -1.50172114, z: 0, w: 3.62547731}
        outSlope: {x: 0, y: -1.50172114, z: 0, w: 3.62547731}
        tangentMode: 0
      - time: .316666722
        value: {x: -0, y: -.94693023, z: -0, w: -.321439236}
        inSlope: {x: 0, y: -1.26138818, z: 0, w: 3.71593094}
        outSlope: {x: 0, y: -1.26138818, z: 0, w: 3.71593094}
        tangentMode: 0
      - time: .333333403
        value: {x: -0, y: -.965925872, z: -0, w: -.258818835}
        inSlope: {x: 0, y: -1.01565158, z: 0, w: 3.79047012}
        outSlope: {x: 0, y: -1.01565158, z: 0, w: 3.79047012}
        tangentMode: 594646572
      - time: .350000083
        value: {x: -0, y: -.98078531, z: -0, w: -.19509013}
        inSlope: {x: 0, y: -.765571594, z: 0, w: 3.84878874}
        outSlope: {x: 0, y: -.765571594, z: 0, w: 3.84878874}
        tangentMode: 594007832
      - time: .366666764
        value: {x: -0, y: -.991444945, z: -0, w: -.130525768}
        inSlope: {x: 0, y: -.512208521, z: 0, w: 3.89061928}
        outSlope: {x: 0, y: -.512208521, z: 0, w: 3.89061928}
        tangentMode: 594660756
      - time: .383333445
        value: {x: -0, y: -.997858942, z: -0, w: -.0654027164}
        inSlope: {x: 0, y: -.256651431, z: 0, w: 3.91578531}
        outSlope: {x: 0, y: -.256651431, z: 0, w: 3.91578531}
        tangentMode: 151285888
      - time: .400000125
        value: {x: -0, y: -1, z: -0, w: 5.20548554e-07}
        inSlope: {x: 0, y: 1.78813934e-06, z: 0, w: 3.92418718}
        outSlope: {x: 0, y: 1.78813934e-06, z: 0, w: 3.92418718}
        tangentMode: 594158276
      - time: .416666806
        value: {x: -0, y: -.997858882, z: -0, w: .0654036328}
        inSlope: {x: 0, y: .256656796, z: 0, w: 3.91578484}
        outSlope: {x: 0, y: .256656796, z: 0, w: 3.91578484}
        tangentMode: 151914208
      - time: .433333486
        value: {x: -0, y: -.991444767, z: -0, w: .130526796}
        inSlope: {x: 0, y: .51221031, z: 0, w: 3.89061499}
        outSlope: {x: 0, y: .51221031, z: 0, w: 3.89061499}
        tangentMode: 594522072
      - time: .450000167
        value: {x: -0, y: -.980785191, z: -0, w: .195090905}
        inSlope: {x: 0, y: .765573382, z: 0, w: 3.84878469}
        outSlope: {x: 0, y: .765573382, z: 0, w: 3.84878469}
        tangentMode: 151295468
      - time: .466666847
        value: {x: -0, y: -.965925634, z: -0, w: .258819729}
        inSlope: {x: 0, y: 1.01565874, z: 0, w: 3.79047728}
        outSlope: {x: 0, y: 1.01565874, z: 0, w: 3.79047728}
        tangentMode: 594414484
      - time: .483333528
        value: {x: -0, y: -.946929872, z: -0, w: .32144025}
        inSlope: {x: 0, y: 1.26139116, z: 0, w: 3.71592999}
        outSlope: {x: 0, y: 1.26139116, z: 0, w: 3.71592999}
        tangentMode: 594426956
      - time: .500000179
        value: {x: -0, y: -.923879266, z: -0, w: .382684052}
        inSlope: {x: 0, y: 1.50172377, z: 0, w: 3.62547469}
        outSlope: {x: 0, y: 1.50172377, z: 0, w: 3.62547469}
        tangentMode: 594415252
      - time: .51666683
        value: {x: -0, y: -.896872461, z: -0, w: .442289293}
        inSlope: {x: 0, y: 1.73562515, z: 0, w: 3.51949596}
        outSlope: {x: 0, y: 1.73562515, z: 0, w: 3.51949596}
        tangentMode: 594653100
      - time: .53333348
        value: {x: -0, y: -.86602515, z: -0, w: .500000477}
        inSlope: {x: 0, y: 1.96209311, z: 0, w: 3.39844084}
        outSlope: {x: 0, y: 1.96209311, z: 0, w: 3.39844084}
        tangentMode: 151761796
      - time: .550000131
        value: {x: -0, y: -.831469417, z: -0, w: .555570543}
        inSlope: {x: 0, y: 2.18016052, z: 0, w: 3.26283884}
        outSlope: {x: 0, y: 2.18016052, z: 0, w: 3.26283884}
        tangentMode: 593997868
      - time: .566666782
        value: {x: -0, y: -.7933532, z: -0, w: .608761668}
        inSlope: {x: 0, y: 2.38889384, z: 0, w: 3.11326456}
        outSlope: {x: 0, y: 2.38889384, z: 0, w: 3.11326456}
        tangentMode: 594458104
      - time: .583333433
        value: {x: -0, y: -.751839697, z: -0, w: .659345925}
        inSlope: {x: 0, y: 2.58740091, z: 0, w: 2.95036125}
        outSlope: {x: 0, y: 2.58740091, z: 0, w: 2.95036125}
        tangentMode: 594349344
      - time: .600000083
        value: {x: -0, y: -.70710659, z: -0, w: .707106948}
        inSlope: {x: 0, y: 2.77482653, z: 0, w: 2.77482653}
        outSlope: {x: 0, y: 2.77482653, z: 0, w: 2.77482653}
        tangentMode: 151403800
      - time: .616666734
        value: {x: -0, y: -.659345567, z: -0, w: .751840055}
        inSlope: {x: 0, y: 2.95036292, z: 0, w: 2.58739901}
        outSlope: {x: 0, y: 2.95036292, z: 0, w: 2.58739901}
        tangentMode: 151188624
      - time: .633333385
        value: {x: -0, y: -.608761251, z: -0, w: .793353498}
        inSlope: {x: 0, y: 3.11327171, z: 0, w: 2.38889384}
        outSlope: {x: 0, y: 3.11327171, z: 0, w: 2.38889384}
        tangentMode: 594601008
      - time: .650000036
        value: {x: -0, y: -.555569947, z: -0, w: .831469774}
        inSlope: {x: 0, y: 3.26283884, z: 0, w: 2.18015862}
        outSlope: {x: 0, y: 3.26283884, z: 0, w: 2.18015862}
        tangentMode: 151885984
      - time: .666666687
        value: {x: -0, y: -.50000006, z: -0, w: .866025388}
        inSlope: {x: 0, y: 3.39844251, z: 0, w: 1.96209145}
        outSlope: {x: 0, y: 3.39844251, z: 0, w: 1.96209145}
        tangentMode: 151581200
      - time: .683333337
        value: {x: -0, y: -.442288637, z: -0, w: .896872759}
        inSlope: {x: 0, y: 3.51950073, z: 0, w: 1.73562515}
        outSlope: {x: 0, y: 3.51950073, z: 0, w: 1.73562515}
        tangentMode: 594120072
      - time: .699999988
        value: {x: -0, y: -.382683486, z: -0, w: .923879504}
        inSlope: {x: 0, y: 3.62547922, z: 0, w: 1.50172377}
        outSlope: {x: 0, y: 3.62547922, z: 0, w: 1.50172377}
        tangentMode: 594586304
      - time: .716666639
        value: {x: -0, y: -.321439445, z: -0, w: .94693017}
        inSlope: {x: 0, y: 3.71592712, z: 0, w: 1.26138866}
        outSlope: {x: 0, y: 3.71592712, z: 0, w: 1.26138866}
        tangentMode: 593954476
      - time: .73333329
        value: {x: -0, y: -.258819371, z: -0, w: .965925753}
        inSlope: {x: 0, y: 3.7904706, z: 0, w: 1.01565337}
        outSlope: {x: 0, y: 3.7904706, z: 0, w: 1.01565337}
        tangentMode: 594208180
      - time: .74999994
        value: {x: -0, y: -.195090547, z: -0, w: .980785251}
        inSlope: {x: 0, y: 3.84878802, z: 0, w: .765572906}
        outSlope: {x: 0, y: 3.84878802, z: 0, w: .765572906}
        tangentMode: 594399472
      - time: .766666591
        value: {x: -0, y: -.130526558, z: -0, w: .991444826}
        inSlope: {x: 0, y: 3.89061832, z: 0, w: .512209415}
        outSlope: {x: 0, y: 3.89061832, z: 0, w: .512209415}
        tangentMode: 594687068
      - time: .783333242
        value: {x: -0, y: -.065403387, z: -0, w: .997858882}
        inSlope: {x: 0, y: 3.9157815, z: 0, w: .256655455}
        outSlope: {x: 0, y: 3.9157815, z: 0, w: .256655455}
        tangentMode: 594277876
      - time: .799999893
        value: {x: -0, y: -6.27832947e-07, z: -0, w: 1}
        inSlope: {x: 0, y: 3.92418361, z: 0, w: 1.78813934e-06}
        outSlope: {x: 0, y: 3.92418361, z: 0, w: 1.78813934e-06}
        tangentMode: 151603304
      - time: .816666543
        value: {x: -0, y: .0654026121, z: -0, w: .997858942}
        inSlope: {x: 0, y: 3.91578865, z: 0, w: -.256651878}
        outSlope: {x: 0, y: 3.91578865, z: 0, w: -.256651878}
        tangentMode: 151319780
      - time: .833333194
        value: {x: -0, y: .130525544, z: -0, w: .991444945}
        inSlope: {x: 0, y: 3.8906188, z: 0, w: -.512207627}
        outSlope: {x: 0, y: 3.8906188, z: 0, w: -.512207627}
        tangentMode: 151550636
      - time: .849999845
        value: {x: -0, y: .195089787, z: -0, w: .98078537}
        inSlope: {x: 0, y: 3.84878182, z: 0, w: -.765567541}
        outSlope: {x: 0, y: 3.84878182, z: 0, w: -.765567541}
        tangentMode: 593985036
      - time: .866666496
        value: {x: -0, y: .25881815, z: -0, w: .965926051}
        inSlope: {x: 0, y: 3.79047108, z: 0, w: -1.0156498}
        outSlope: {x: 0, y: 3.79047108, z: 0, w: -1.0156498}
        tangentMode: 151666616
      - time: .883333147
        value: {x: -0, y: .3214387, z: -0, w: .946930408}
        inSlope: {x: 0, y: 3.71593595, z: 0, w: -1.26138508}
        outSlope: {x: 0, y: 3.71593595, z: 0, w: -1.26138508}
        tangentMode: 151368204
      - time: .899999797
        value: {x: -0, y: .382682562, z: -0, w: .923879921}
        inSlope: {x: 0, y: 3.62548113, z: 0, w: -1.50172019}
        outSlope: {x: 0, y: 3.62548113, z: 0, w: -1.50172019}
        tangentMode: 594176928
      - time: .916666448
        value: {x: -0, y: .442287952, z: -0, w: .896873116}
        inSlope: {x: 0, y: 3.51950788, z: 0, w: -1.73562694}
        outSlope: {x: 0, y: 3.51950788, z: 0, w: -1.73562694}
        tangentMode: 594854872
      - time: .933333099
        value: {x: -0, y: .499999374, z: -0, w: .866025746}
        inSlope: {x: 0, y: 3.39844346, z: 0, w: -1.96208787}
        outSlope: {x: 0, y: 3.39844346, z: 0, w: -1.96208787}
        tangentMode: 594198084
      - time: .94999975
        value: {x: -0, y: .555569291, z: -0, w: .831470251}
        inSlope: {x: 0, y: 3.2628417, z: 0, w: -2.18015528}
        outSlope: {x: 0, y: 3.2628417, z: 0, w: -2.18015528}
        tangentMode: 151288920
      - time: .9666664
        value: {x: -0, y: .608760655, z: -0, w: .793353975}
        inSlope: {x: 0, y: 3.11327338, z: 0, w: -2.38889384}
        outSlope: {x: 0, y: 3.11327338, z: 0, w: -2.38889384}
        tangentMode: 151370688
      - time: .983333051
        value: {x: -0, y: .659344971, z: -0, w: .751840532}
        inSlope: {x: 0, y: 2.95035887, z: 0, w: -2.58739281}
        outSlope: {x: 0, y: 2.95035887, z: 0, w: -2.58739281}
        tangentMode: 151711788
      - time: 1
        value: {x: -0, y: .707106709, z: -0, w: .707106829}
        inSlope: {x: 0, y: 2.8656559, z: 0, w: -2.68397665}
        outSlope: {x: 0, y: 2.8656559, z: 0, w: -2.68397665}
        tangentMode: 151542944
      m_PreInfinity: 2
      m_PostInfinity: 2
    path: 
  m_CompressedRotationCurves: []
  m_PositionCurves: []
  m_ScaleCurves: []
  m_FloatCurves: []
  m_PPtrCurves: []
  m_SampleRate: 60
  m_WrapMode: 0
  m_Bounds:
    m_Center: {x: 0, y: 0, z: 0}
    m_Extent: {x: 0, y: 0, z: 0}
  m_ClipBindingConstant:
    genericBindings: []
    pptrCurveMapping: []
  m_AnimationClipSettings:
    serializedVersion: 2
    m_StartTime: 0
    m_StopTime: 1
    m_OrientationOffsetY: 0
    m_Level: 0
    m_CycleOffset: 0
    m_LoopTime: 0
    m_LoopBlend: 0
    m_LoopBlendOrientation: 0
    m_LoopBlendPositionY: 0
    m_LoopBlendPositionXZ: 0
    m_KeepOriginalOrientation: 0
    m_KeepOriginalPositionY: 1
    m_KeepOriginalPositionXZ: 0
    m_HeightFromFeet: 0
    m_Mirror: 0
  m_EditorCurves:
  - curve:
      serializedVersion: 2
      m_Curve:
      - time: 0
        value: -0
        inSlope: 0
        outSlope: 0
        tangentMode: 0
      - time: .0166666675
        value: -0
        inSlope: 0
        outSlope: 0
        tangentMode: 0
      - time: .0333333351
        value: -0
        inSlope: 0
        outSlope: 0
        tangentMode: 0
      - time: .0500000045
        value: -0
        inSlope: 0
        outSlope: 0
        tangentMode: 0
      - time: .0666666701
        value: -0
        inSlope: 0
        outSlope: 0
        tangentMode: 0
      - time: .0833333358
        value: -0
        inSlope: 0
        outSlope: 0
        tangentMode: 0
      - time: .100000001
        value: -0
        inSlope: 0
        outSlope: 0
        tangentMode: 0
      - time: .116666667
        value: -0
        inSlope: 0
        outSlope: 0
        tangentMode: 0
      - time: .13333334
        value: -0
        inSlope: 0
        outSlope: 0
        tangentMode: 0
      - time: .150000006
        value: -0
        inSlope: 0
        outSlope: 0
        tangentMode: 0
      - time: .166666672
        value: -0
        inSlope: 0
        outSlope: 0
        tangentMode: 0
      - time: .183333337
        value: -0
        inSlope: 0
        outSlope: 0
        tangentMode: 0
      - time: .200000003
        value: -0
        inSlope: 0
        outSlope: 0
        tangentMode: 0
      - time: .216666669
        value: -0
        inSlope: 0
        outSlope: 0
        tangentMode: 0
      - time: .233333334
        value: -0
        inSlope: 0
        outSlope: 0
        tangentMode: 0
      - time: .25
        value: -0
        inSlope: 0
        outSlope: 0
        tangentMode: 0
      - time: .266666681
        value: -0
        inSlope: 0
        outSlope: 0
        tangentMode: 0
      - time: .283333361
        value: -0
        inSlope: 0
        outSlope: 0
        tangentMode: 0
      - time: .300000042
        value: -0
        inSlope: 0
        outSlope: 0
        tangentMode: 0
      - time: .316666722
        value: -0
        inSlope: 0
        outSlope: 0
        tangentMode: 0
      - time: .333333403
        value: -0
        inSlope: 0
        outSlope: 0
        tangentMode: 0
      - time: .350000083
        value: -0
        inSlope: 0
        outSlope: 0
        tangentMode: 0
      - time: .366666764
        value: -0
        inSlope: 0
        outSlope: 0
        tangentMode: 0
      - time: .383333445
        value: -0
        inSlope: 0
        outSlope: 0
        tangentMode: 0
      - time: .400000125
        value: -0
        inSlope: 0
        outSlope: 0
        tangentMode: 0
      - time: .416666806
        value: -0
        inSlope: 0
        outSlope: 0
        tangentMode: 0
      - time: .433333486
        value: -0
        inSlope: 0
        outSlope: 0
        tangentMode: 0
      - time: .450000167
        value: -0
        inSlope: 0
        outSlope: 0
        tangentMode: 0
      - time: .466666847
        value: -0
        inSlope: 0
        outSlope: 0
        tangentMode: 0
      - time: .483333528
        value: -0
        inSlope: 0
        outSlope: 0
        tangentMode: 0
      - time: .500000179
        value: -0
        inSlope: 0
        outSlope: 0
        tangentMode: 0
      - time: .51666683
        value: -0
        inSlope: 0
        outSlope: 0
        tangentMode: 0
      - time: .53333348
        value: -0
        inSlope: 0
        outSlope: 0
        tangentMode: 0
      - time: .550000131
        value: -0
        inSlope: 0
        outSlope: 0
        tangentMode: 0
      - time: .566666782
        value: -0
        inSlope: 0
        outSlope: 0
        tangentMode: 0
      - time: .583333433
        value: -0
        inSlope: 0
        outSlope: 0
        tangentMode: 0
      - time: .600000083
        value: -0
        inSlope: 0
        outSlope: 0
        tangentMode: 0
      - time: .616666734
        value: -0
        inSlope: 0
        outSlope: 0
        tangentMode: 0
      - time: .633333385
        value: -0
        inSlope: 0
        outSlope: 0
        tangentMode: 0
      - time: .650000036
        value: -0
        inSlope: 0
        outSlope: 0
        tangentMode: 0
      - time: .666666687
        value: -0
        inSlope: 0
        outSlope: 0
        tangentMode: 0
      - time: .683333337
        value: -0
        inSlope: 0
        outSlope: 0
        tangentMode: 0
      - time: .699999988
        value: -0
        inSlope: 0
        outSlope: 0
        tangentMode: 0
      - time: .716666639
        value: -0
        inSlope: 0
        outSlope: 0
        tangentMode: 0
      - time: .73333329
        value: -0
        inSlope: 0
        outSlope: 0
        tangentMode: 0
      - time: .74999994
        value: -0
        inSlope: 0
        outSlope: 0
        tangentMode: 0
      - time: .766666591
        value: -0
        inSlope: 0
        outSlope: 0
        tangentMode: 0
      - time: .783333242
        value: -0
        inSlope: 0
        outSlope: 0
        tangentMode: 0
      - time: .799999893
        value: -0
        inSlope: 0
        outSlope: 0
        tangentMode: 0
      - time: .816666543
        value: -0
        inSlope: 0
        outSlope: 0
        tangentMode: 0
      - time: .833333194
        value: -0
        inSlope: 0
        outSlope: 0
        tangentMode: 0
      - time: .849999845
        value: -0
        inSlope: 0
        outSlope: 0
        tangentMode: 0
      - time: .866666496
        value: -0
        inSlope: 0
        outSlope: 0
        tangentMode: 0
      - time: .883333147
        value: -0
        inSlope: 0
        outSlope: 0
        tangentMode: 0
      - time: .899999797
        value: -0
        inSlope: 0
        outSlope: 0
        tangentMode: 0
      - time: .916666448
        value: -0
        inSlope: 0
        outSlope: 0
        tangentMode: 0
      - time: .933333099
        value: -0
        inSlope: 0
        outSlope: 0
        tangentMode: 0
      - time: .94999975
        value: -0
        inSlope: 0
        outSlope: 0
        tangentMode: 0
      - time: .9666664
        value: -0
        inSlope: 0
        outSlope: 0
        tangentMode: 0
      - time: .983333051
        value: -0
        inSlope: 0
        outSlope: 0
        tangentMode: 0
      - time: 1
        value: -0
        inSlope: 0
        outSlope: 0
        tangentMode: 0
      m_PreInfinity: 2
      m_PostInfinity: 2
    attribute: m_LocalRotation.x
    path: 
    classID: 4
    script: {fileID: 0}
  - curve:
      serializedVersion: 2
      m_Curve:
      - time: 0
        value: -0
        inSlope: -3.9241879
        outSlope: -3.9241879
        tangentMode: 0
      - time: .0166666675
        value: -.0654031336
        inSlope: -3.91578579
        outSlope: -3.91578579
        tangentMode: 0
      - time: .0333333351
        value: -.1305262
        inSlope: -3.8906157
        outSlope: -3.8906157
        tangentMode: 0
      - time: .0500000045
        value: -.195090339
        inSlope: -3.84878516
        outSlope: -3.84878516
        tangentMode: 0
      - time: .0666666701
        value: -.258819044
        inSlope: -3.79047346
        outSlope: -3.79047346
        tangentMode: 0
      - time: .0833333358
        value: -.321439445
        inSlope: -3.71593261
        outSlope: -3.71593261
        tangentMode: 0
      - time: .100000001
        value: -.382683456
        inSlope: -3.62547779
        outSlope: -3.62547779
        tangentMode: 0
      - time: .116666667
        value: -.442288697
        inSlope: -3.51949573
        outSlope: -3.51949573
        tangentMode: 0
      - time: .13333334
        value: -.5
        inSlope: -3.39844584
        outSlope: -3.39844584
        tangentMode: 0
      - time: .150000006
        value: -.555570245
        inSlope: -3.26284313
        outSlope: -3.26284313
        tangentMode: 0
      - time: .166666672
        value: -.60876143
        inSlope: -3.11326694
        outSlope: -3.11326694
        tangentMode: 0
      - time: .183333337
        value: -.659345806
        inSlope: -2.9503603
        outSlope: -2.9503603
        tangentMode: 0
      - time: .200000003
        value: -.707106769
        inSlope: -2.77482057
        outSlope: -2.77482057
        tangentMode: 0
      - time: .216666669
        value: -.751839817
        inSlope: -2.58739662
        outSlope: -2.58739662
        tangentMode: 0
      - time: .233333334
        value: -.793353319
        inSlope: -2.3888936
        outSlope: -2.3888936
        tangentMode: 0
      - time: .25
        value: -.831469595
        inSlope: -2.18016315
        outSlope: -2.18016315
        tangentMode: 0
      - time: .266666681
        value: -.866025448
        inSlope: -1.96209502
        outSlope: -1.96209502
        tangentMode: 0
      - time: .283333361
        value: -.896872818
        inSlope: -1.73562205
        outSlope: -1.73562205
        tangentMode: 0
      - time: .300000042
        value: -.923879564
        inSlope: -1.50172114
        outSlope: -1.50172114
        tangentMode: 0
      - time: .316666722
        value: -.94693023
        inSlope: -1.26138818
        outSlope: -1.26138818
        tangentMode: 0
      - time: .333333403
        value: -.965925872
        inSlope: -1.01565158
        outSlope: -1.01565158
        tangentMode: 0
      - time: .350000083
        value: -.98078531
        inSlope: -.765571594
        outSlope: -.765571594
        tangentMode: 0
      - time: .366666764
        value: -.991444945
        inSlope: -.512208521
        outSlope: -.512208521
        tangentMode: 0
      - time: .383333445
        value: -.997858942
        inSlope: -.256651431
        outSlope: -.256651431
        tangentMode: 0
      - time: .400000125
        value: -1
        inSlope: 1.78813934e-06
        outSlope: 1.78813934e-06
        tangentMode: 0
      - time: .416666806
        value: -.997858882
        inSlope: .256656796
        outSlope: .256656796
        tangentMode: 0
      - time: .433333486
        value: -.991444767
        inSlope: .51221031
        outSlope: .51221031
        tangentMode: 0
      - time: .450000167
        value: -.980785191
        inSlope: .765573382
        outSlope: .765573382
        tangentMode: 0
      - time: .466666847
        value: -.965925634
        inSlope: 1.01565874
        outSlope: 1.01565874
        tangentMode: 0
      - time: .483333528
        value: -.946929872
        inSlope: 1.26139116
        outSlope: 1.26139116
        tangentMode: 0
      - time: .500000179
        value: -.923879266
        inSlope: 1.50172377
        outSlope: 1.50172377
        tangentMode: 0
      - time: .51666683
        value: -.896872461
        inSlope: 1.73562515
        outSlope: 1.73562515
        tangentMode: 0
      - time: .53333348
        value: -.86602515
        inSlope: 1.96209311
        outSlope: 1.96209311
        tangentMode: 0
      - time: .550000131
        value: -.831469417
        inSlope: 2.18016052
        outSlope: 2.18016052
        tangentMode: 0
      - time: .566666782
        value: -.7933532
        inSlope: 2.38889384
        outSlope: 2.38889384
        tangentMode: 0
      - time: .583333433
        value: -.751839697
        inSlope: 2.58740091
        outSlope: 2.58740091
        tangentMode: 0
      - time: .600000083
        value: -.70710659
        inSlope: 2.77482653
        outSlope: 2.77482653
        tangentMode: 0
      - time: .616666734
        value: -.659345567
        inSlope: 2.95036292
        outSlope: 2.95036292
        tangentMode: 0
      - time: .633333385
        value: -.608761251
        inSlope: 3.11327171
        outSlope: 3.11327171
        tangentMode: 0
      - time: .650000036
        value: -.555569947
        inSlope: 3.26283884
        outSlope: 3.26283884
        tangentMode: 0
      - time: .666666687
        value: -.50000006
        inSlope: 3.39844251
        outSlope: 3.39844251
        tangentMode: 0
      - time: .683333337
        value: -.442288637
        inSlope: 3.51950073
        outSlope: 3.51950073
        tangentMode: 0
      - time: .699999988
        value: -.382683486
        inSlope: 3.62547922
        outSlope: 3.62547922
        tangentMode: 0
      - time: .716666639
        value: -.321439445
        inSlope: 3.71592712
        outSlope: 3.71592712
        tangentMode: 0
      - time: .73333329
        value: -.258819371
        inSlope: 3.7904706
        outSlope: 3.7904706
        tangentMode: 0
      - time: .74999994
        value: -.195090547
        inSlope: 3.84878802
        outSlope: 3.84878802
        tangentMode: 0
      - time: .766666591
        value: -.130526558
        inSlope: 3.89061832
        outSlope: 3.89061832
        tangentMode: 0
      - time: .783333242
        value: -.065403387
        inSlope: 3.9157815
        outSlope: 3.9157815
        tangentMode: 0
      - time: .799999893
        value: -6.27832947e-07
        inSlope: 3.92418361
        outSlope: 3.92418361
        tangentMode: 0
      - time: .816666543
        value: .0654026121
        inSlope: 3.91578865
        outSlope: 3.91578865
        tangentMode: 0
      - time: .833333194
        value: .130525544
        inSlope: 3.8906188
        outSlope: 3.8906188
        tangentMode: 0
      - time: .849999845
        value: .195089787
        inSlope: 3.84878182
        outSlope: 3.84878182
        tangentMode: 0
      - time: .866666496
        value: .25881815
        inSlope: 3.79047108
        outSlope: 3.79047108
        tangentMode: 0
      - time: .883333147
        value: .3214387
        inSlope: 3.71593595
        outSlope: 3.71593595
        tangentMode: 0
      - time: .899999797
        value: .382682562
        inSlope: 3.62548113
        outSlope: 3.62548113
        tangentMode: 0
      - time: .916666448
        value: .442287952
        inSlope: 3.51950788
        outSlope: 3.51950788
        tangentMode: 0
      - time: .933333099
        value: .499999374
        inSlope: 3.39844346
        outSlope: 3.39844346
        tangentMode: 0
      - time: .94999975
        value: .555569291
        inSlope: 3.2628417
        outSlope: 3.2628417
        tangentMode: 0
      - time: .9666664
        value: .608760655
        inSlope: 3.11327338
        outSlope: 3.11327338
        tangentMode: 0
      - time: .983333051
        value: .659344971
        inSlope: 2.95035887
        outSlope: 2.95035887
        tangentMode: 0
      - time: 1
        value: .707106709
        inSlope: 2.8656559
        outSlope: 2.8656559
        tangentMode: 0
      m_PreInfinity: 2
      m_PostInfinity: 2
    attribute: m_LocalRotation.y
    path: 
    classID: 4
    script: {fileID: 0}
  - curve:
      serializedVersion: 2
      m_Curve:
      - time: 0
        value: -0
        inSlope: 0
        outSlope: 0
        tangentMode: 0
      - time: .0166666675
        value: -0
        inSlope: 0
        outSlope: 0
        tangentMode: 0
      - time: .0333333351
        value: -0
        inSlope: 0
        outSlope: 0
        tangentMode: 0
      - time: .0500000045
        value: -0
        inSlope: 0
        outSlope: 0
        tangentMode: 0
      - time: .0666666701
        value: -0
        inSlope: 0
        outSlope: 0
        tangentMode: 0
      - time: .0833333358
        value: -0
        inSlope: 0
        outSlope: 0
        tangentMode: 0
      - time: .100000001
        value: -0
        inSlope: 0
        outSlope: 0
        tangentMode: 0
      - time: .116666667
        value: -0
        inSlope: 0
        outSlope: 0
        tangentMode: 0
      - time: .13333334
        value: -0
        inSlope: 0
        outSlope: 0
        tangentMode: 0
      - time: .150000006
        value: -0
        inSlope: 0
        outSlope: 0
        tangentMode: 0
      - time: .166666672
        value: -0
        inSlope: 0
        outSlope: 0
        tangentMode: 0
      - time: .183333337
        value: -0
        inSlope: 0
        outSlope: 0
        tangentMode: 0
      - time: .200000003
        value: -0
        inSlope: 0
        outSlope: 0
        tangentMode: 0
      - time: .216666669
        value: -0
        inSlope: 0
        outSlope: 0
        tangentMode: 0
      - time: .233333334
        value: -0
        inSlope: 0
        outSlope: 0
        tangentMode: 0
      - time: .25
        value: -0
        inSlope: 0
        outSlope: 0
        tangentMode: 0
      - time: .266666681
        value: -0
        inSlope: 0
        outSlope: 0
        tangentMode: 0
      - time: .283333361
        value: -0
        inSlope: 0
        outSlope: 0
        tangentMode: 0
      - time: .300000042
        value: -0
        inSlope: 0
        outSlope: 0
        tangentMode: 0
      - time: .316666722
        value: -0
        inSlope: 0
        outSlope: 0
        tangentMode: 0
      - time: .333333403
        value: -0
        inSlope: 0
        outSlope: 0
        tangentMode: 0
      - time: .350000083
        value: -0
        inSlope: 0
        outSlope: 0
        tangentMode: 0
      - time: .366666764
        value: -0
        inSlope: 0
        outSlope: 0
        tangentMode: 0
      - time: .383333445
        value: -0
        inSlope: 0
        outSlope: 0
        tangentMode: 0
      - time: .400000125
        value: -0
        inSlope: 0
        outSlope: 0
        tangentMode: 0
      - time: .416666806
        value: -0
        inSlope: 0
        outSlope: 0
        tangentMode: 0
      - time: .433333486
        value: -0
        inSlope: 0
        outSlope: 0
        tangentMode: 0
      - time: .450000167
        value: -0
        inSlope: 0
        outSlope: 0
        tangentMode: 0
      - time: .466666847
        value: -0
        inSlope: 0
        outSlope: 0
        tangentMode: 0
      - time: .483333528
        value: -0
        inSlope: 0
        outSlope: 0
        tangentMode: 0
      - time: .500000179
        value: -0
        inSlope: 0
        outSlope: 0
        tangentMode: 0
      - time: .51666683
        value: -0
        inSlope: 0
        outSlope: 0
        tangentMode: 0
      - time: .53333348
        value: -0
        inSlope: 0
        outSlope: 0
        tangentMode: 0
      - time: .550000131
        value: -0
        inSlope: 0
        outSlope: 0
        tangentMode: 0
      - time: .566666782
        value: -0
        inSlope: 0
        outSlope: 0
        tangentMode: 0
      - time: .583333433
        value: -0
        inSlope: 0
        outSlope: 0
        tangentMode: 0
      - time: .600000083
        value: -0
        inSlope: 0
        outSlope: 0
        tangentMode: 0
      - time: .616666734
        value: -0
        inSlope: 0
        outSlope: 0
        tangentMode: 0
      - time: .633333385
        value: -0
        inSlope: 0
        outSlope: 0
        tangentMode: 0
      - time: .650000036
        value: -0
        inSlope: 0
        outSlope: 0
        tangentMode: 0
      - time: .666666687
        value: -0
        inSlope: 0
        outSlope: 0
        tangentMode: 0
      - time: .683333337
        value: -0
        inSlope: 0
        outSlope: 0
        tangentMode: 0
      - time: .699999988
        value: -0
        inSlope: 0
        outSlope: 0
        tangentMode: 0
      - time: .716666639
        value: -0
        inSlope: 0
        outSlope: 0
        tangentMode: 0
      - time: .73333329
        value: -0
        inSlope: 0
        outSlope: 0
        tangentMode: 0
      - time: .74999994
        value: -0
        inSlope: 0
        outSlope: 0
        tangentMode: 0
      - time: .766666591
        value: -0
        inSlope: 0
        outSlope: 0
        tangentMode: 0
      - time: .783333242
        value: -0
        inSlope: 0
        outSlope: 0
        tangentMode: 0
      - time: .799999893
        value: -0
        inSlope: 0
        outSlope: 0
        tangentMode: 0
      - time: .816666543
        value: -0
        inSlope: 0
        outSlope: 0
        tangentMode: 0
      - time: .833333194
        value: -0
        inSlope: 0
        outSlope: 0
        tangentMode: 0
      - time: .849999845
        value: -0
        inSlope: 0
        outSlope: 0
        tangentMode: 0
      - time: .866666496
        value: -0
        inSlope: 0
        outSlope: 0
        tangentMode: 0
      - time: .883333147
        value: -0
        inSlope: 0
        outSlope: 0
        tangentMode: 0
      - time: .899999797
        value: -0
        inSlope: 0
        outSlope: 0
        tangentMode: 0
      - time: .916666448
        value: -0
        inSlope: 0
        outSlope: 0
        tangentMode: 0
      - time: .933333099
        value: -0
        inSlope: 0
        outSlope: 0
        tangentMode: 0
      - time: .94999975
        value: -0
        inSlope: 0
        outSlope: 0
        tangentMode: 0
      - time: .9666664
        value: -0
        inSlope: 0
        outSlope: 0
        tangentMode: 0
      - time: .983333051
        value: -0
        inSlope: 0
        outSlope: 0
        tangentMode: 0
      - time: 1
        value: -0
        inSlope: 0
        outSlope: 0
        tangentMode: 0
      m_PreInfinity: 2
      m_PostInfinity: 2
    attribute: m_LocalRotation.z
    path: 
    classID: 4
    script: {fileID: 0}
  - curve:
      serializedVersion: 2
      m_Curve:
      - time: 0
        value: -1
        inSlope: .128463507
        outSlope: .128463507
        tangentMode: 0
      - time: .0166666675
        value: -.997858942
        inSlope: .256653428
        outSlope: .256653428
        tangentMode: 0
      - time: .0333333351
        value: -.991444886
        inSlope: .512210667
        outSlope: .512210667
        tangentMode: 0
      - time: .0500000045
        value: -.980785251
        inSlope: .76557219
        outSlope: .76557219
        tangentMode: 0
      - time: .0666666701
        value: -.965925813
        inSlope: 1.01565433
        outSlope: 1.01565433
        tangentMode: 0
      - time: .0833333358
        value: -.94693011
        inSlope: 1.26138937
        outSlope: 1.26138937
        tangentMode: 0
      - time: .100000001
        value: -.923879504
        inSlope: 1.50172067
        outSlope: 1.50172067
        tangentMode: 0
      - time: .116666667
        value: -.896872759
        inSlope: 1.73562312
        outSlope: 1.73562312
        tangentMode: 0
      - time: .13333334
        value: -.866025388
        inSlope: 1.96209466
        outSlope: 1.96209466
        tangentMode: 0
      - time: .150000006
        value: -.831469595
        inSlope: 2.18016243
        outSlope: 2.18016243
        tangentMode: 0
      - time: .166666672
        value: -.793353319
        inSlope: 2.3888936
        outSlope: 2.3888936
        tangentMode: 0
      - time: .183333337
        value: -.751839817
        inSlope: 2.58739662
        outSlope: 2.58739662
        tangentMode: 0
      - time: .200000003
        value: -.707106769
        inSlope: 2.77482057
        outSlope: 2.77482057
        tangentMode: 0
      - time: .216666669
        value: -.659345806
        inSlope: 2.9503603
        outSlope: 2.9503603
        tangentMode: 0
      - time: .233333334
        value: -.60876143
        inSlope: 3.11326694
        outSlope: 3.11326694
        tangentMode: 0
      - time: .25
        value: -.555570245
        inSlope: 3.26284266
        outSlope: 3.26284266
        tangentMode: 0
      - time: .266666681
        value: -.49999997
        inSlope: 3.39844704
        outSlope: 3.39844704
        tangentMode: 0
      - time: .283333361
        value: -.442288578
        inSlope: 3.51949692
        outSlope: 3.51949692
        tangentMode: 0
      - time: .300000042
        value: -.382683307
        inSlope: 3.62547731
        outSlope: 3.62547731
        tangentMode: 0
      - time: .316666722
        value: -.321439236
        inSlope: 3.71593094
        outSlope: 3.71593094
        tangentMode: 0
      - time: .333333403
        value: -.258818835
        inSlope: 3.79047012
        outSlope: 3.79047012
        tangentMode: 0
      - time: .350000083
        value: -.19509013
        inSlope: 3.84878874
        outSlope: 3.84878874
        tangentMode: 0
      - time: .366666764
        value: -.130525768
        inSlope: 3.89061928
        outSlope: 3.89061928
        tangentMode: 0
      - time: .383333445
        value: -.0654027164
        inSlope: 3.91578531
        outSlope: 3.91578531
        tangentMode: 0
      - time: .400000125
        value: 5.20548554e-07
        inSlope: 3.92418718
        outSlope: 3.92418718
        tangentMode: 0
      - time: .416666806
        value: .0654036328
        inSlope: 3.91578484
        outSlope: 3.91578484
        tangentMode: 0
      - time: .433333486
        value: .130526796
        inSlope: 3.89061499
        outSlope: 3.89061499
        tangentMode: 0
      - time: .450000167
        value: .195090905
        inSlope: 3.84878469
        outSlope: 3.84878469
        tangentMode: 0
      - time: .466666847
        value: .258819729
        inSlope: 3.79047728
        outSlope: 3.79047728
        tangentMode: 0
      - time: .483333528
        value: .32144025
        inSlope: 3.71592999
        outSlope: 3.71592999
        tangentMode: 0
      - time: .500000179
        value: .382684052
        inSlope: 3.62547469
        outSlope: 3.62547469
        tangentMode: 0
      - time: .51666683
        value: .442289293
        inSlope: 3.51949596
        outSlope: 3.51949596
        tangentMode: 0
      - time: .53333348
        value: .500000477
        inSlope: 3.39844084
        outSlope: 3.39844084
        tangentMode: 0
      - time: .550000131
        value: .555570543
        inSlope: 3.26283884
        outSlope: 3.26283884
        tangentMode: 0
      - time: .566666782
        value: .608761668
        inSlope: 3.11326456
        outSlope: 3.11326456
        tangentMode: 0
      - time: .583333433
        value: .659345925
        inSlope: 2.95036125
        outSlope: 2.95036125
        tangentMode: 0
      - time: .600000083
        value: .707106948
        inSlope: 2.77482653
        outSlope: 2.77482653
        tangentMode: 0
      - time: .616666734
        value: .751840055
        inSlope: 2.58739901
        outSlope: 2.58739901
        tangentMode: 0
      - time: .633333385
        value: .793353498
        inSlope: 2.38889384
        outSlope: 2.38889384
        tangentMode: 0
      - time: .650000036
        value: .831469774
        inSlope: 2.18015862
        outSlope: 2.18015862
        tangentMode: 0
      - time: .666666687
        value: .866025388
        inSlope: 1.96209145
        outSlope: 1.96209145
        tangentMode: 0
      - time: .683333337
        value: .896872759
        inSlope: 1.73562515
        outSlope: 1.73562515
        tangentMode: 0
      - time: .699999988
        value: .923879504
        inSlope: 1.50172377
        outSlope: 1.50172377
        tangentMode: 0
      - time: .716666639
        value: .94693017
        inSlope: 1.26138866
        outSlope: 1.26138866
        tangentMode: 0
      - time: .73333329
        value: .965925753
        inSlope: 1.01565337
        outSlope: 1.01565337
        tangentMode: 0
      - time: .74999994
        value: .980785251
        inSlope: .765572906
        outSlope: .765572906
        tangentMode: 0
      - time: .766666591
        value: .991444826
        inSlope: .512209415
        outSlope: .512209415
        tangentMode: 0
      - time: .783333242
        value: .997858882
        inSlope: .256655455
        outSlope: .256655455
        tangentMode: 0
      - time: .799999893
        value: 1
        inSlope: 1.78813934e-06
        outSlope: 1.78813934e-06
        tangentMode: 0
      - time: .816666543
        value: .997858942
        inSlope: -.256651878
        outSlope: -.256651878
        tangentMode: 0
      - time: .833333194
        value: .991444945
        inSlope: -.512207627
        outSlope: -.512207627
        tangentMode: 0
      - time: .849999845
        value: .98078537
        inSlope: -.765567541
        outSlope: -.765567541
        tangentMode: 0
      - time: .866666496
        value: .965926051
        inSlope: -1.0156498
        outSlope: -1.0156498
        tangentMode: 0
      - time: .883333147
        value: .946930408
        inSlope: -1.26138508
        outSlope: -1.26138508
        tangentMode: 0
      - time: .899999797
        value: .923879921
        inSlope: -1.50172019
        outSlope: -1.50172019
        tangentMode: 0
      - time: .916666448
        value: .896873116
        inSlope: -1.73562694
        outSlope: -1.73562694
        tangentMode: 0
      - time: .933333099
        value: .866025746
        inSlope: -1.96208787
        outSlope: -1.96208787
        tangentMode: 0
      - time: .94999975
        value: .831470251
        inSlope: -2.18015528
        outSlope: -2.18015528
        tangentMode: 0
      - time: .9666664
        value: .793353975
        inSlope: -2.38889384
        outSlope: -2.38889384
        tangentMode: 0
      - time: .983333051
        value: .751840532
        inSlope: -2.58739281
        outSlope: -2.58739281
        tangentMode: 0
      - time: 1
        value: .707106829
        inSlope: -2.68397665
        outSlope: -2.68397665
        tangentMode: 0
      m_PreInfinity: 2
      m_PostInfinity: 2
    attribute: m_LocalRotation.w
    path: 
    classID: 4
    script: {fileID: 0}
  m_EulerEditorCurves:
  - curve:
      serializedVersion: 2
      m_Curve:
      - time: 0
        value: 0
        inSlope: 0
        outSlope: 0
        tangentMode: 10
      - time: 1
        value: 0
        inSlope: 0
        outSlope: 0
        tangentMode: 10
      m_PreInfinity: 2
      m_PostInfinity: 2
    attribute: localEulerAnglesBaked.x
    path: 
    classID: 4
    script: {fileID: 0}
  - curve:
      serializedVersion: 2
      m_Curve:
      - time: 0
        value: 0
        inSlope: 450
        outSlope: 450
        tangentMode: 10
      - time: 1
        value: 450
        inSlope: 450
        outSlope: 450
        tangentMode: 10
      m_PreInfinity: 2
      m_PostInfinity: 2
    attribute: localEulerAnglesBaked.y
    path: 
    classID: 4
    script: {fileID: 0}
  - curve:
      serializedVersion: 2
      m_Curve:
      - time: 0
        value: 0
        inSlope: 0
        outSlope: 0
        tangentMode: 10
      - time: 1
        value: 0
        inSlope: 0
        outSlope: 0
        tangentMode: 10
      m_PreInfinity: 2
      m_PostInfinity: 2
    attribute: localEulerAnglesBaked.z
    path: 
    classID: 4
    script: {fileID: 0}
  m_Events: []
